<?xml version="1.0" standalone="no"?>
<!DOCTYPE svg PUBLIC "-//W3C//DTD SVG 1.1//EN" "http://www.w3.org/Graphics/SVG/1.1/DTD/svg11.dtd" >
<svg xmlns="http://www.w3.org/2000/svg">
<metadata></metadata>
<defs>
<font id="museo_slab_300regular" horiz-adv-x="1118" >
<font-face units-per-em="2048" ascent="1536" descent="-512" />
<missing-glyph horiz-adv-x="512" />
<glyph unicode="&#xfb01;" horiz-adv-x="1314" d="M84 915v115h184v53q0 93 25.5 163t61.5 107.5t85.5 60.5t87.5 29.5t76 6.5q48 0 62 -2l22 -4v-121l-18 4q-14 2 -52 2q-25 0 -49 -4t-55 -19t-53 -40t-37.5 -72t-15.5 -109v-55h675v-915h174v-115h-487v115h174v800h-536v-800h204v-115h-518v115h174v800h-184zM934 1266 v174h158v-174h-158z" />
<glyph unicode="&#xfb02;" horiz-adv-x="1271" d="M84 915v115h184v35q0 92 26.5 164t69.5 116t101.5 72.5t117 39.5t122.5 11q148 0 241 -22q46 -8 92 -25v-1153q0 -73 26 -113t99 -40q29 0 35 2t14 2v-119l-24 -4q-14 -2 -53 -2q-112 0 -174 61t-62 203v1069l-47 12q-71 13 -150 13q-56 0 -105 -14t-93.5 -44.5 t-70 -88.5t-25.5 -138v-37h262v-115h-262v-800h204v-115h-518v115h174v800h-184z" />
<glyph unicode="&#xfb03;" horiz-adv-x="1988" d="M84 915v115h184v53q0 93 25.5 163t61.5 107.5t85.5 60.5t87.5 29.5t76 6.5q48 0 62 -2l22 -4v-121l-18 4q-14 2 -52 2q-25 0 -49 -4t-55 -19t-53 -40t-37.5 -72t-15.5 -109v-55h536v53q0 78 17 140t46.5 100.5t63 65t74 39t71.5 17.5t62 5q47 0 61 -2l23 -4v-121l-19 4 q-14 2 -51 2q-26 0 -50 -4t-54.5 -19t-52 -40t-37 -72t-15.5 -109v-55h674v-915h174v-115h-487v115h174v800h-535v-800h203v-115h-516v115h174v800h-536v-800h204v-115h-518v115h174v800h-184zM1608 1266v174h157v-174h-157z" />
<glyph unicode="&#xfb04;" horiz-adv-x="1945" d="M84 915v115h184v53q0 93 25 163t61 107.5t85.5 60.5t88.5 29.5t80 6.5q44 0 58 -2l22 -4v-121l-18 4q-14 2 -49 2q-26 0 -50 -4t-55.5 -19t-54 -40t-38 -72t-15.5 -109v-55h536v35q0 92 26.5 164t68.5 116t100.5 72.5t116.5 39.5t122 11q149 0 242 -22q46 -8 92 -25 v-1153q0 -73 26 -113t99 -40q29 0 35 2t14 2v-119l-24 -4q-14 -2 -54 -2q-112 0 -173.5 61t-61.5 203v1069l-47 12q-71 13 -150 13q-57 0 -106 -14t-92.5 -44.5t-69 -88.5t-25.5 -138v-37h260v-115h-260v-800h203v-115h-516v115h174v800h-536v-800h204v-115h-518v115h174 v800h-184z" />
<glyph horiz-adv-x="2048" />
<glyph horiz-adv-x="2048" />
<glyph unicode="&#xd;" horiz-adv-x="2048" />
<glyph unicode=" "  horiz-adv-x="512" />
<glyph unicode="&#x09;" horiz-adv-x="512" />
<glyph unicode="&#xa0;" horiz-adv-x="512" />
<glyph unicode="!" horiz-adv-x="479" d="M160 0v162h162v-162h-162zM168 1440h143l-6 -1063h-131z" />
<glyph unicode="&#x22;" horiz-adv-x="651" d="M141 1049v411h121v-411h-121zM389 1049v411h121v-411h-121z" />
<glyph unicode="#" horiz-adv-x="1482" d="M96 399l19 115h291l71 401h-291l21 115h289l71 410h125l-71 -410h354l72 410h124l-71 -410h289l-21 -115h-287l-71 -401h286l-20 -115h-285l-71 -399h-125l69 399h-352l-72 -399h-125l72 399h-291zM530 514h355l71 401h-354z" />
<glyph unicode="$" horiz-adv-x="1083" d="M94 190l84 105q46 -43 105 -78q135 -80 272 -80q123 0 206 68.5t83 181.5q0 51 -25 93t-67 71.5t-96 55.5t-114 49.5t-120.5 49t-114.5 59t-96 74t-67 99t-25 129.5q0 139 103.5 239.5t273.5 120.5v226h114v-221q139 -7 254 -74q42 -21 88 -64l-67 -112q-42 36 -88 61 q-106 60 -228 60q-137 0 -221 -67.5t-84 -164.5q0 -55 24.5 -99t66.5 -75t96.5 -57t114.5 -49.5t119.5 -47.5t114 -56t96.5 -71t66.5 -96t24.5 -127q0 -150 -102 -258t-275 -125v-221h-114v221q-162 12 -299 99q-68 44 -103 81z" />
<glyph unicode="%" horiz-adv-x="1462" d="M98 1180q0 117 84.5 200.5t202.5 83.5q120 0 204.5 -83.5t84.5 -200.5q0 -118 -84.5 -201.5t-204.5 -83.5q-119 0 -203 83.5t-84 201.5zM111 0l1097 1440h146l-1096 -1440h-147zM221 1180q0 -73 46.5 -121.5t117.5 -48.5q72 0 120 49t48 121q0 70 -48.5 120t-119.5 50 t-117.5 -50t-46.5 -120zM791 258q0 119 84 203t202 84q120 0 204.5 -84t84.5 -203q0 -117 -84.5 -200t-204.5 -83q-118 0 -202 83t-84 200zM913 260q0 -73 46.5 -121.5t117.5 -48.5q72 0 120 49t48 121q0 70 -48.5 120t-119.5 50t-117.5 -50t-46.5 -120z" />
<glyph unicode="&#x26;" horiz-adv-x="1361" d="M113 397q0 129 71 236.5t195 142.5v4q-50 18 -103 64q-102 94 -102 256q0 165 123.5 264.5t327.5 99.5q55 0 110 -10q34 -8 56 -10l-41 -119l-41 8q-34 6 -78 6q-134 0 -221.5 -67t-87.5 -180q0 -33 6 -64.5t26.5 -69t53 -65t92 -46t137.5 -18.5h338v205h141v-205h195 v-122h-195v-213q0 -253 -133.5 -386t-364.5 -133q-223 0 -364 120t-141 302zM258 408q0 -130 98.5 -216t264.5 -86t260 95.5t94 296.5v209h-344q-184 0 -278.5 -80t-94.5 -219z" />
<glyph unicode="'" horiz-adv-x="403" d="M141 1049v411h121v-411h-121z" />
<glyph unicode="(" horiz-adv-x="616" d="M154 690q0 431 229 805h131q-231 -388 -231 -805q0 -472 231 -885h-131q-108 191 -168.5 418.5t-60.5 466.5z" />
<glyph unicode=")" horiz-adv-x="616" d="M102 -195q232 415 232 885q0 407 -232 805h129q232 -379 232 -805q0 -241 -60.5 -468.5t-171.5 -416.5h-129z" />
<glyph unicode="*" horiz-adv-x="983" d="M96 1104l41 129l295 -109l-12 316h139l-12 -316l297 107l43 -125l-303 -88v-4l190 -246l-106 -80l-176 260h-5l-174 -258l-108 78l192 246v4z" />
<glyph unicode="+" horiz-adv-x="1241" d="M86 522v119h473v522h125v-522h471v-119h-471v-522h-125v522h-473z" />
<glyph unicode="," horiz-adv-x="503" d="M49 -264l139 432h160l-178 -432h-121z" />
<glyph unicode="-" horiz-adv-x="1005" d="M213 518v127h580v-127h-580z" />
<glyph unicode="." horiz-adv-x="497" d="M166 0v170h166v-170h-166z" />
<glyph unicode="/" horiz-adv-x="839" d="M94 -86l520 1606h131l-520 -1606h-131z" />
<glyph unicode="0" horiz-adv-x="1263" d="M135 721q0 129 15.5 237t51.5 203t92 161t141.5 104t195.5 38t196 -38t142 -104t92.5 -161.5t51.5 -203t15 -236.5q0 -746 -497 -746q-110 0 -195.5 38t-141.5 104t-92 161.5t-51.5 204t-15.5 238.5zM283 721q0 -108 10 -197t35 -168.5t64 -133.5t99.5 -85t139.5 -31 q80 0 141 31t100 85t64 133.5t35 168t10 197.5q0 108 -10 196.5t-35 167.5t-64 132.5t-100 84.5t-141 31q-98 0 -167.5 -46t-108 -132t-55.5 -192t-17 -242z" />
<glyph unicode="1" horiz-adv-x="927" d="M102 0v123h322v1061q0 13 1 31t1 24v25h-4l-14 -23q-13 -17 -58 -63l-153 -152l-91 90l326 324h133v-1317h316v-123h-779z" />
<glyph unicode="2" horiz-adv-x="1179" d="M109 92q0 81 25.5 153.5t68.5 128t98.5 106t117.5 93.5t123.5 85t117 85.5t98.5 89.5t68.5 103.5t25.5 120.5q0 121 -82.5 198.5t-216.5 77.5q-132 0 -242 -98q-52 -46 -84 -100l-102 69q42 77 102 131q141 129 334 129q199 0 318.5 -115.5t119.5 -287.5 q0 -76 -25 -144.5t-68 -122t-98 -102t-116.5 -91t-122.5 -84t-116 -85t-98 -89t-68 -102t-25 -118.5h674v201h131v-324h-950q-8 44 -8 92z" />
<glyph unicode="3" horiz-adv-x="1148" d="M92 172l86 104q47 -47 103 -83q134 -87 266 -87q133 0 231.5 90t98.5 226q0 142 -103.5 224.5t-251.5 82.5q-21 0 -42 -1t-34 -2t-14 -1l-37 86l389 461q8 11 33 31l17 14v4q-17 0 -25 -2q-14 -2 -43 -2h-481v-197h-131v320h852v-101l-426 -493q58 -2 116 -16t118 -46 t106 -78t75 -118.5t29 -161.5q0 -122 -61.5 -225.5t-171 -164.5t-242.5 -61q-172 0 -334 99q-73 45 -123 98z" />
<glyph unicode="4" horiz-adv-x="1200" d="M57 399v93l707 948h154v-920h204v-121h-204v-399h-142v399h-719zM225 520h551v649q0 28 4 64l4 31h-6l-14 -27q-15 -30 -33 -53l-506 -660v-4z" />
<glyph unicode="5" horiz-adv-x="1136" d="M96 162l86 100q36 -45 86 -78q114 -78 250 -78q152 0 257.5 99t105.5 237q0 154 -101 249t-260 95q-110 0 -194 -41q-38 -17 -76 -40l-90 32l78 703h702v-320h-129v197h-451l-47 -406q0 -9 -6 -39l-4 -18h4q33 19 66 29q76 26 168 26q210 0 348.5 -131t138.5 -325 q0 -130 -66 -239.5t-182.5 -174t-257.5 -64.5q-173 0 -319 95q-64 40 -107 92z" />
<glyph unicode="6" horiz-adv-x="1206" d="M127 647q0 81 11.5 161.5t36.5 161.5t61.5 153.5t89 135t115.5 108t145.5 71.5t175.5 26q96 0 190 -28q34 -10 74 -31l-53 -123q-39 21 -60 27q-67 24 -151 24q-88 0 -164 -33.5t-129 -89.5t-93 -131t-62.5 -156.5t-30.5 -168.5h4q54 78 152.5 123t215.5 45 q195 0 322 -131.5t127 -333.5q0 -146 -62 -257t-165 -168t-230 -57q-155 0 -274.5 87.5t-182.5 240t-63 344.5zM281 541q0 -55 16.5 -115t48.5 -117t75 -102.5t101.5 -73t122.5 -27.5q144 0 227.5 98t83.5 253q0 154 -89.5 247t-241.5 93q-140 0 -242 -80t-102 -176z" />
<glyph unicode="7" horiz-adv-x="1089" d="M84 1120v320h965v-99l-668 -1341h-148l619 1253q13 29 27 47q9 9 12 17v4q-15 0 -23 -2q-14 -2 -53 -2h-602v-197h-129z" />
<glyph unicode="8" horiz-adv-x="1218" d="M123 406q0 69 22.5 134t50 106.5t68.5 81t58.5 52.5t39.5 27q-87 57 -134.5 126.5t-47.5 166.5q0 72 27.5 136.5t79.5 116t137 81.5t192 30q199 0 320 -102t121 -268q0 -73 -23 -144.5t-59 -125.5t-57 -80t-39 -44q101 -57 156 -130t55 -181q0 -111 -60.5 -205.5 t-171 -151.5t-246.5 -57q-131 0 -242 52.5t-179 152.5t-68 226zM268 416q0 -136 103 -224t239 -88q130 0 231 81.5t101 199.5q0 48 -19 88t-46.5 67t-78.5 56t-93 47t-113 48t-117 52q-207 -136 -207 -327zM324 1100q0 -35 11 -66t27.5 -54.5t45.5 -47t56 -40t68 -36.5 t72.5 -33t79 -33t78.5 -34q17 17 35 39t48.5 66.5t50 102t19.5 115.5q0 120 -82.5 188t-216.5 68q-135 0 -213.5 -67t-78.5 -168z" />
<glyph unicode="9" horiz-adv-x="1206" d="M102 983q0 110 36 201.5t98 152t145 94t178 33.5q155 0 274.5 -87.5t182.5 -239.5t63 -344q0 -113 -22.5 -225.5t-72.5 -220t-122.5 -190t-181 -132.5t-238.5 -50q-84 0 -188 31q-23 7 -74 29l53 123q32 -18 60 -25q75 -27 149 -27q87 0 163 33.5t130.5 90t95.5 131.5 t63.5 157.5t29.5 169.5h-4q-53 -72 -155 -118t-214 -46q-197 0 -323 129t-126 330zM250 983q0 -150 89.5 -242t240.5 -92q138 0 242 78.5t104 173.5q0 71 -27.5 147t-74 139.5t-116.5 104.5t-147 41q-143 0 -227 -98t-84 -252z" />
<glyph unicode=":" horiz-adv-x="610" d="M221 0v170h168v-170h-168zM221 860v170h168v-170h-168z" />
<glyph unicode=";" horiz-adv-x="608" d="M113 -264l120 432h160l-160 -432h-120zM225 860v170h164v-170h-164z" />
<glyph unicode="&#x3c;" horiz-adv-x="1241" d="M135 530v103l926 414v-138l-754 -325v-4l754 -326v-137z" />
<glyph unicode="=" horiz-adv-x="1241" d="M143 344v119h955v-119h-955zM143 700v119h955v-119h-955z" />
<glyph unicode="&#x3e;" horiz-adv-x="1241" d="M178 117v137l754 326v4l-754 325v138l926 -414v-103z" />
<glyph unicode="?" horiz-adv-x="925" d="M96 1350q45 39 90 59q105 57 240 57q178 0 294 -101.5t116 -260.5q0 -69 -20 -127.5t-52.5 -100.5t-72 -80t-78.5 -73t-71.5 -71.5t-52.5 -84t-20 -102.5v-88h-137v92q0 66 19.5 123.5t51.5 99.5t70 80.5t76 74t70 71.5t51.5 82t19.5 98q0 100 -75.5 167.5t-192.5 67.5 q-88 0 -176 -43q-9 -5 -72 -43zM319 0v162h162v-162h-162z" />
<glyph unicode="@" horiz-adv-x="1574" d="M98 498q0 155 56.5 293t155 238.5t239.5 159t303 58.5q121 0 215 -32t149.5 -87t84 -123t28.5 -145v-645h144v-115h-549q-176 0 -293 115.5t-117 278.5q0 161 117.5 277t292.5 116h266q-5 101 -92.5 171t-249.5 70q-172 0 -312 -85.5t-217 -230t-77 -318.5 q0 -172 77.5 -314.5t217 -226.5t311.5 -84v-123q-209 0 -381.5 100t-270.5 272.5t-98 379.5zM657 494q0 -115 81 -197t198 -82h254v563h-250q-120 0 -201.5 -83t-81.5 -201z" />
<glyph unicode="A" horiz-adv-x="1468" d="M23 0v119h147l485 1321h158l485 -1321h148v-119h-461v119h166l-137 370h-561l-136 -370h166v-119h-460zM492 610h483l-215 590q-4 12 -9 34t-8 30l-6 28h-6q0 -8 -4 -28q-3 -8 -7.5 -29.5t-8.5 -34.5z" />
<glyph unicode="B" horiz-adv-x="1372" d="M111 0v119h188v1202h-188v119h649q153 0 248 -49q80 -38 128 -122t48 -194q0 -108 -49 -188.5t-136 -122.5v-4q110 -32 176 -128.5t66 -225.5q0 -132 -67.5 -232.5t-176.5 -142.5q-82 -31 -215 -31h-671zM442 123h344q93 0 150 22q74 31 116 101t42 162q0 130 -78.5 207 t-206.5 77h-367v-569zM442 815h351q111 0 177 68.5t66 183.5q0 148 -104 213q-64 37 -172 37h-318v-502z" />
<glyph unicode="C" horiz-adv-x="1519" d="M111 729q0 154 56.5 290.5t153.5 234t232.5 154t286.5 56.5q74 0 158.5 -14.5t173 -45t146.5 -89.5t58 -137v-154h-137v115q0 49 -40 88.5t-102 62t-127 34t-124 11.5q-165 0 -299 -77t-210.5 -215t-76.5 -310q0 -177 76.5 -321t213 -226t304.5 -82q51 0 114.5 9.5 t132.5 30.5t115 62t46 95v113h137v-154q0 -73 -57 -131t-144 -90t-177 -48t-171 -16q-158 0 -296.5 59.5t-235 160.5t-152 240t-55.5 294z" />
<glyph unicode="D" horiz-adv-x="1589" d="M111 0v119h188v1202h-188v119h608q192 0 307 -37q207 -67 325.5 -246.5t118.5 -437.5q0 -265 -121 -441t-341 -243q-102 -35 -289 -35h-608zM442 123h265q152 0 256 35q169 55 263.5 200t94.5 361q0 214 -92 360.5t-256 204.5q-57 21 -116 27t-150 6h-265v-1194z" />
<glyph unicode="E" horiz-adv-x="1282" d="M111 0v119h188v1202h-188v119h1017v-299h-131v176h-555v-531h545v-122h-545v-541h594v186h129v-309h-1054z" />
<glyph unicode="F" horiz-adv-x="1161" d="M111 0v119h188v1202h-188v119h968v-307h-129v180h-508v-543h527v-123h-527v-528h201v-119h-532z" />
<glyph unicode="G" horiz-adv-x="1570" d="M113 721q0 158 54 295t150 236t236.5 155.5t306.5 56.5q95 0 190 -19t174.5 -54t129 -89.5t49.5 -119.5v-158h-137v109q0 65 -65 112.5t-154.5 68.5t-184.5 21q-135 0 -248 -46t-190 -127t-119.5 -194t-42.5 -245q0 -175 74 -316t211 -222t313 -81q47 0 101 5.5t115.5 21 t110 38t81 60t32.5 84.5v226h-301v118h437v-376q0 -79 -58.5 -141t-149.5 -96.5t-186 -51.5t-184 -17q-217 0 -388 98t-264 267.5t-93 380.5z" />
<glyph unicode="H" horiz-adv-x="1718" d="M111 0v119h188v1202h-188v119h520v-119h-189v-539h834v539h-189v119h521v-119h-189v-1202h189v-119h-521v119h189v540h-834v-540h189v-119h-520z" />
<glyph unicode="I" horiz-adv-x="741" d="M111 0v119h188v1202h-188v119h520v-119h-189v-1202h189v-119h-520z" />
<glyph unicode="J" d="M59 393v68h142v-51q0 -131 66.5 -217.5t193.5 -86.5q109 0 184.5 74t75.5 230v911h-219v119h530v-119h-168v-924q0 -89 -23 -161t-62 -119.5t-91.5 -80t-109 -47t-117.5 -14.5t-117.5 14t-109 46t-91 79t-61.5 118.5t-23 160.5z" />
<glyph unicode="K" horiz-adv-x="1370" d="M111 0v119h188v1202h-188v119h510v-119h-179v-508h211l353 508h-142v119h447v-119h-146l-397 -559v-4l20 -17q32 -32 50 -67l295 -498q19 -31 42 -44t64 -13h72v-119h-109q-60 0 -95 11t-55.5 32t-47.5 66l-302 518q-20 34 -44.5 48.5t-69.5 14.5h-146v-571h187v-119 h-518z" />
<glyph unicode="L" horiz-adv-x="1212" d="M111 0v119h188v1198h-188v123h520v-123h-189v-1194h576v239h131v-362h-1038z" />
<glyph unicode="M" horiz-adv-x="1927" d="M74 0v119h188l96 1202h-190v119h346l418 -942q6 -13 12 -33.5t8 -26.5l9 -24h4q4 16 8 24q2 6 9 26.5t13 33.5l418 942h344v-119h-188l94 -1202h188v-119h-514v119h185l-78 993q0 43 2 66q2 12 2 36h-4l-10 -34q-9 -36 -21 -62l-383 -844h-133l-385 844q-18 53 -20 62 q-6 16 -9 34h-6q0 -24 2 -36q3 -31 3 -50q0 -9 -1 -16l-78 -993h185v-119h-514z" />
<glyph unicode="N" horiz-adv-x="1705" d="M111 0v119h188v1202h-188v119h327l807 -1137q13 -18 29 -55q2 -4 14 -33h4l-4 35q-2 23 -2 65v1006h-190v119h522v-119h-188v-1321h-140l-807 1137q-9 15 -28 57q-8 13 -15 31h-4l4 -35q3 -31 3 -49q0 -9 -1 -15v-1007h191v-119h-522z" />
<glyph unicode="O" horiz-adv-x="1689" d="M111 729q0 153 57.5 290t155.5 234t233.5 154t286.5 57t287 -57t234.5 -154t156 -234t57.5 -290q0 -156 -57.5 -295.5t-155.5 -240t-234.5 -159.5t-287.5 -59q-150 0 -286 59t-234 159.5t-155.5 240.5t-57.5 295zM260 729q0 -173 78.5 -316.5t212.5 -225t293 -81.5 t293.5 81.5t213.5 225t79 316.5q0 169 -79 308t-213.5 217.5t-293.5 78.5t-293 -78.5t-212.5 -217.5t-78.5 -308z" />
<glyph unicode="P" horiz-adv-x="1314" d="M111 0v119h188v1202h-188v119h655q162 0 246 -41q107 -48 169 -150.5t62 -240.5q0 -149 -70 -258t-192 -152q-86 -29 -213 -29h-326v-450h189v-119h-520zM442 692h312q98 0 174 29q80 33 125 107.5t45 179.5q0 197 -150 274q-81 35 -194 35h-312v-625z" />
<glyph unicode="Q" horiz-adv-x="1689" d="M111 727q0 154 57 291t154.5 234.5t233 154.5t286.5 57q204 0 373 -95t266.5 -263t97.5 -373q0 -295 -180 -500l178 -178l-86 -88l-176 178q-201 -170 -473 -170q-151 0 -286.5 59t-233 159.5t-154.5 240t-57 293.5zM260 727q0 -172 76.5 -314.5t210.5 -224.5t295 -82 q100 0 200.5 35.5t174.5 100.5l-220 223l84 88l219 -223q134 173 134 399q0 127 -45.5 239t-124 192t-188.5 126.5t-234 46.5q-162 0 -295.5 -78.5t-210 -217.5t-76.5 -310z" />
<glyph unicode="R" horiz-adv-x="1404" d="M111 0v119h188v1202h-188v119h616q158 0 256 -33q110 -40 172 -131t62 -229q0 -161 -86 -271.5t-234 -136.5v-4l16 -14q23 -23 33 -46l240 -409q16 -29 37 -38t65 -9h41v-119h-78q-64 0 -97 9.5t-53 30t-48 69.5l-242 413q-28 53 -60.5 70.5t-101.5 17.5h-207v-491h187 v-119h-518zM442 733h338q131 0 211 82t80 221q0 192 -158 254q-73 27 -190 27h-281v-584z" />
<glyph unicode="S" horiz-adv-x="1159" d="M121 264v137h137v-104q0 -88 92 -139.5t223 -51.5q145 0 233.5 69t88.5 192q0 30 -6.5 57.5t-15 48.5t-28 42.5t-33.5 36t-44 32.5t-46.5 27.5t-54.5 25.5t-54.5 23t-59.5 23q-12 5 -18 7q-53 20 -81.5 31.5t-76 34.5t-74 42.5t-60 50.5t-51 64t-30 78.5t-12.5 98.5 q0 121 61 207.5t158.5 126.5t218.5 40q106 0 199 -25t155 -77.5t62 -122.5v-154h-138v107q0 44 -43.5 77t-105.5 48.5t-129 15.5q-128 0 -209.5 -60.5t-81.5 -172.5q0 -36 10 -67.5t24 -54.5t42.5 -46.5t50 -38t63 -33.5t66 -28.5t74.5 -28.5q55 -20 89 -33.5t83 -37t79 -45 t64.5 -54t54 -68t32.5 -82.5t13 -102q0 -187 -131.5 -296.5t-337.5 -109.5q-80 0 -158 18t-144.5 52t-108 91t-41.5 128z" />
<glyph unicode="T" horiz-adv-x="1339" d="M66 1083v357h1208v-357h-131v234h-402v-1198h189v-119h-520v119h188v1198h-403v-234h-129z" />
<glyph unicode="U" horiz-adv-x="1617" d="M68 1321v119h520v-119h-189v-789q0 -163 64 -264q51 -78 140 -120t206 -42q118 0 208.5 43.5t137.5 124.5q64 107 64 263v784h-189v119h520v-119h-188v-791q0 -203 -92 -340q-72 -104 -191.5 -159.5t-269.5 -55.5q-153 0 -274.5 57t-190.5 161q-88 126 -88 337v791h-188z " />
<glyph unicode="V" horiz-adv-x="1443" d="M25 1321v119h464v-119h-165l372 -1067q4 -12 9 -34t8 -30l6 -30h6l6 30q1 4 17 64l372 1067h-164v119h465v-119h-149l-471 -1321h-158l-471 1321h-147z" />
<glyph unicode="W" horiz-adv-x="2048" d="M35 1321v119h465v-119h-172l258 -1059q5 -20 10 -63l4 -31h8q0 11 4 31q3 10 8 32t7 31l329 1178h134l331 -1178q2 -9 7 -31t8 -32q4 -20 4 -31h8l4 31q5 43 10 63l258 1059h-172v119h465v-119h-147l-334 -1321h-170l-318 1133q-9 35 -12 63l-4 31h-8l-4 -31 q-3 -28 -12 -63l-320 -1133h-168l-336 1321h-145z" />
<glyph unicode="X" horiz-adv-x="1320" d="M57 0v119h144l374 608l-372 594h-140v119h459v-119h-164l279 -451l25 -39l8 -14h4l1 2l3.5 7t5.5 11.5t9 15t12 17.5l268 451h-158v119h449v-119h-142l-381 -610l375 -592h144v-119h-457v119h158l-277 448l-25 39l-8 17h-4l-8 -17l-9 -16q-8 -15 -14 -23l-268 -448h160 v-119h-451z" />
<glyph unicode="Y" horiz-adv-x="1318" d="M23 1321v119h454v-119h-160l312 -524l20 -37q3 -5 8 -19h5q5 14 8 19l20 37l314 524h-160v119h452v-119h-141l-424 -703v-499h189v-119h-521v119h189v499l-424 703h-141z" />
<glyph unicode="Z" horiz-adv-x="1275" d="M117 0v100l790 1149q8 13 22 29t17 20l19 19v4q-17 0 -25 -2q-14 -2 -55 -2h-629v-234h-129v357h1012v-101l-791 -1149q-8 -13 -22 -29t-17 -20l-18 -18v-4q16 0 24 2q14 2 56 2h657v239h129v-362h-1040z" />
<glyph unicode="[" horiz-adv-x="608" d="M211 -195v1690h276v-115h-147v-1460h147v-115h-276z" />
<glyph unicode="\" horiz-adv-x="837" d="M94 1520h131l518 -1606h-131z" />
<glyph unicode="]" horiz-adv-x="606" d="M117 -80h149v1460h-149v115h278v-1690h-278v115z" />
<glyph unicode="^" horiz-adv-x="1241" d="M150 512l405 928h96l408 -928h-135l-320 758l-319 -758h-135z" />
<glyph unicode="_" d="M31 0h1056v-119h-1056v119z" />
<glyph unicode="`" horiz-adv-x="1032" d="M322 1784h178l200 -244h-147z" />
<glyph unicode="a" d="M78 283q0 69 26 124.5t65.5 91t98.5 61.5t112 39.5t120 21t108 9t90 1.5h68v43q0 260 -248 260q-107 0 -215 -49q-35 -16 -84 -51l-65 104q46 37 98 59q118 58 274 58q379 0 379 -387v-508q0 -45 45 -45h113v-115h-168q-65 0 -94 28t-29 85v18q0 31 4 59q2 8 2 21h-4 q-26 -62 -78 -117q-111 -119 -274 -119q-66 0 -126 19t-109.5 55.5t-79 97t-29.5 136.5zM221 297q0 -85 59.5 -146t161.5 -61q75 0 137.5 35t102.5 91t62 124t22 137v49h-59q-486 0 -486 -229z" />
<glyph unicode="b" horiz-adv-x="1220" d="M0 1325v115h324v-508q0 -46 -2 -62l-5 -24h5q26 56 77 104q105 105 275 105q207 0 327.5 -149t120.5 -392t-130 -391t-335 -148q-155 0 -262 107q-51 51 -78 104h-4l4 -24q2 -16 2 -62v-100h-135v1325h-184zM319 512q0 -107 35 -198.5t111.5 -152.5t181.5 -61 q142 0 238 112t96 302q0 187 -92 300.5t-236 113.5q-67 0 -125.5 -24.5t-106 -73t-75 -130.5t-27.5 -188z" />
<glyph unicode="c" horiz-adv-x="1126" d="M94 512q0 156 72.5 281t195.5 193.5t271 68.5q55 0 116 -11.5t123 -36t102 -70.5t40 -106v-112h-129v76q0 43 -44 75t-99.5 46t-106.5 14q-170 0 -283.5 -115t-113.5 -299q0 -187 116 -301.5t287 -114.5q56 0 110.5 14t90 31t70 41.5t45.5 34.5t22 21l59 -107 q-12 -12 -26.5 -25t-54.5 -39.5t-82 -45.5t-106.5 -34.5t-131.5 -15.5q-148 0 -271 65t-197.5 189t-74.5 283z" />
<glyph unicode="d" horiz-adv-x="1265" d="M98 514q0 246 129 393.5t336 147.5q151 0 260 -101q53 -53 76 -100h4q0 15 -2 23q-4 28 -4 57v391h-184v115h323v-1280q0 -45 45 -45h115v-115h-170q-65 0 -94 28t-29 85v18q0 19 4 47l4 17h-4q-29 -63 -78 -109q-115 -111 -284 -111q-205 0 -326 149t-121 390zM242 514 q0 -188 89.5 -301t235.5 -113q67 0 125.5 24.5t106 73t75 130t27.5 186.5q0 81 -20.5 154t-60 132t-103 93.5t-142.5 34.5q-143 0 -238 -111.5t-95 -302.5z" />
<glyph unicode="e" horiz-adv-x="1130" d="M96 514q0 124 40 227t109.5 171t161.5 105.5t197 37.5q138 0 237.5 -66t147 -172t47.5 -237q0 -27 -2 -41l-4 -25h-790q3 -128 58.5 -223.5t144 -143t196.5 -47.5q117 0 227 62q48 26 86 61l64 -104q-40 -35 -103 -72q-122 -72 -278 -72q-151 0 -274 68t-194 191.5 t-71 279.5zM246 616h645q-4 156 -86.5 239t-204.5 83q-134 0 -232 -85t-122 -237z" />
<glyph unicode="f" horiz-adv-x="727" d="M84 915v115h184v53q0 93 25.5 163t61.5 107.5t85.5 60.5t87.5 29.5t76 6.5q48 0 62 -2l22 -4v-121l-18 4q-14 2 -52 2q-25 0 -49 -4t-55 -19t-53 -40t-37.5 -72t-15.5 -109v-55h262v-115h-262v-800h204v-115h-518v115h174v800h-184z" />
<glyph unicode="g" horiz-adv-x="1253" d="M100 535q0 234 121 377t326 143q76 0 143 -18.5t121.5 -61t81.5 -103.5h4q0 5 -2 11t-2 35q0 58 27 85t92 27h184v-115h-127q-45 0 -45 -43v-847q0 -95 -27.5 -172.5t-74 -129.5t-110.5 -87t-135 -50.5t-149 -15.5q-174 0 -335 82l53 112q40 -23 82 -36q99 -35 196 -35 q78 0 142.5 18.5t114 57t77 102t27.5 147.5v103q0 23 4 51q2 8 2 23h-4q-104 -189 -328 -189q-206 0 -332.5 148t-126.5 381zM244 537q0 -186 91 -296t245 -110q64 0 117.5 21t97 66.5t68 126t24.5 190.5q0 109 -25 188t-71 123t-102.5 64t-127.5 20q-152 0 -234.5 -103 t-82.5 -290z" />
<glyph unicode="h" horiz-adv-x="1347" d="M51 1325v115h324v-566q0 -31 -4 -59l-4 -24h4q18 41 50.5 82.5t82.5 84.5t123.5 70t156.5 27q184 0 264 -100.5t80 -299.5v-540h177v-115h-316v618q0 55 -4 95.5t-17.5 82.5t-37 68t-65 43t-99.5 17q-166 0 -278.5 -123t-112.5 -307v-379h174v-115h-488v115h175v1210 h-185z" />
<glyph unicode="i" horiz-adv-x="643" d="M84 915v115h324v-915h174v-115h-488v115h174v800h-184zM260 1266v174h158v-174h-158z" />
<glyph unicode="j" horiz-adv-x="561" d="M-43 -297q6 0 12 -2t33 -2q29 0 56 4.5t61.5 21t59 43.5t42 78t17.5 119v950h-185v115h324v-1067q0 -97 -27 -170.5t-65.5 -113t-91.5 -64t-94 -31t-83 -6.5q-37 0 -43 2l-16 4v119zM227 1266v174h158v-174h-158z" />
<glyph unicode="k" horiz-adv-x="1146" d="M51 1325v115h324v-811h162l243 286h-147v115h442v-115h-143l-283 -327v-4q3 0 10.5 -4.5t25.5 -25t36 -52.5l205 -344q18 -27 35 -35t59 -8h70v-115h-115q-77 0 -109 19t-69 83l-219 371q-18 27 -39 35t-62 8h-102v-401h164v-115h-478v115h175v1210h-185z" />
<glyph unicode="l" horiz-adv-x="555" d="M0 1325v115h322v-1172q0 -153 116 -153q37 0 43 2t15 2v-119l-25 -4q-14 -2 -55 -2q-234 0 -234 264v1067h-182z" />
<glyph unicode="m" horiz-adv-x="2039" d="M84 915v115h197q125 0 125 -115v-59q0 -16 -5 -51l-4 -23h4q41 108 152 190.5t231 82.5q139 0 214.5 -65t99.5 -197h4q47 108 151.5 185t229.5 77q180 0 260 -100.5t80 -299.5v-540h174v-115h-314v621q0 69 -9 120t-31.5 95.5t-68 68t-112.5 23.5q-100 0 -181 -64.5 t-123 -163t-42 -206.5v-379h174v-115h-313v621q0 55 -3.5 93.5t-16.5 82t-35.5 70t-63.5 44t-98 17.5q-101 0 -183.5 -65.5t-125.5 -165t-43 -208.5v-374h174v-115h-488v115h174v755q0 45 -45 45h-139z" />
<glyph unicode="n" horiz-adv-x="1380" d="M84 915v115h197q125 0 125 -115v-59q0 -16 -5 -51l-4 -23h4q9 26 29 58t57 71t83 70t112 52.5t139 21.5q184 0 263 -100.5t79 -299.5v-540h174v-115h-313v618q0 55 -4 95.5t-18 82.5t-38 68t-65.5 43t-99.5 17q-168 0 -279.5 -127t-111.5 -301v-381h174v-115h-488v115 h174v755q0 45 -45 45h-139z" />
<glyph unicode="o" horiz-adv-x="1271" d="M92 520q0 149 73 272t197.5 193t272.5 70q149 0 274 -70t198 -193t73 -272q0 -114 -43 -216t-116.5 -173.5t-174 -113.5t-211.5 -42t-211 42t-173 113.5t-116 173.5t-43 216zM236 520q0 -178 116.5 -299t282.5 -121q167 0 284 120.5t117 299.5q0 175 -117 292.5 t-284 117.5q-166 0 -282.5 -117.5t-116.5 -292.5z" />
<glyph unicode="p" horiz-adv-x="1275" d="M53 915v115h195q65 0 94 -26.5t29 -81.5v-9q0 -37 -2 -51l-4 -20h4q29 63 75 106q107 107 285 107q207 0 328 -149.5t121 -391.5q0 -243 -130 -391t-333 -148q-151 0 -262 103q-53 53 -78 102h-4l4 -24q2 -16 2 -66v-385h174v-115h-488v115h175v1165q0 45 -45 45h-140z M375 512q0 -79 21.5 -152t61.5 -131.5t103 -93.5t139 -35q142 0 238 112t96 302q0 187 -91.5 300.5t-235.5 113.5q-67 0 -125 -24.5t-105 -73t-74.5 -130.5t-27.5 -188z" />
<glyph unicode="q" horiz-adv-x="1220" d="M98 516q0 243 130 391t333 148q215 0 342 -203h4q0 14 -2 22q-4 28 -4 54v102h135v-1325h174v-115h-487v115h174v389q0 34 4 66l4 24h-4q-25 -54 -78 -104q-105 -105 -276 -105q-207 0 -328 149.5t-121 391.5zM242 516q0 -189 89.5 -302.5t235.5 -113.5q67 0 125.5 24.5 t106 73t75 130.5t27.5 188q0 80 -20.5 153t-60 132t-103.5 94t-144 35q-140 0 -235.5 -112t-95.5 -302z" />
<glyph unicode="r" horiz-adv-x="817" d="M80 915v115h194q66 0 95.5 -27.5t29.5 -89.5v-69q0 -42 -2 -56q-2 -8 -2 -22h4q40 123 124.5 198.5t201.5 75.5q29 0 39 -2l18 -4v-137q-10 0 -16 2t-37 2q-67 0 -122.5 -29t-92.5 -75.5t-62.5 -108t-37 -125t-11.5 -127.5v-321h160v-115h-459v115h160v755q0 45 -45 45 h-139z" />
<glyph unicode="s" horiz-adv-x="962" d="M92 219v100h127v-73q0 -50 43.5 -85.5t102 -50t122.5 -14.5q103 0 172.5 43t69.5 119q0 53 -40.5 93.5t-80 59t-131.5 52.5q-8 3 -14 5.5t-12 4.5q-40 16 -58.5 23.5t-55.5 24t-55.5 28.5t-47 31.5t-43.5 39t-31 44t-22.5 54t-6.5 62.5q0 89 54 153.5t133 93t169 28.5 q55 0 112.5 -12t110 -35t86 -63.5t33.5 -90.5v-119h-127v76q0 55 -62 89t-148 34q-92 0 -155 -39.5t-63 -110.5q0 -33 15.5 -61t36 -47t60 -39t68.5 -31.5t81 -30.5q59 -20 97.5 -36t88 -43.5t79 -57.5t50 -74.5t20.5 -97.5q0 -132 -108 -211.5t-281 -79.5q-98 0 -185 27.5 t-145.5 84.5t-58.5 132z" />
<glyph unicode="t" horiz-adv-x="694" d="M37 915v115h186v285h137v-285h261v-115h-261v-528q0 -68 17 -120t42 -80.5t58.5 -46t61 -22.5t55.5 -5q29 0 35 2t12 2v-121q-10 0 -16 -2t-43 -2q-43 0 -84 6.5t-94 30t-91 62.5t-65 112.5t-27 171.5v540h-184z" />
<glyph unicode="u" horiz-adv-x="1333" d="M35 915v115h323v-620q0 -55 4 -95.5t18 -82.5t37.5 -68t66 -43t100.5 -17q111 0 199.5 63t134 162t45.5 212v374h-185v115h324v-872q0 -45 45 -45h117v-113h-174q-66 0 -94.5 27.5t-28.5 87.5v51q0 13 1 30t1 23v21h-4q-12 -34 -40.5 -74.5t-76.5 -85.5t-124.5 -75 t-166.5 -30q-178 0 -258 97.5t-80 302.5v540h-184z" />
<glyph unicode="v" horiz-adv-x="1153" d="M16 915v115h426v-115h-147l258 -690q4 -10 9 -28.5t7 -24.5q4 -20 4 -27h7q0 7 4 27q3 9 8 27t8 26l258 690h-147v115h426v-115h-136l-350 -915h-149l-350 915h-136z" />
<glyph unicode="w" horiz-adv-x="1742" d="M20 915v115h426v-115h-153l215 -692q9 -27 12 -53l4 -27h4l4 27q3 22 13 53l258 803h137l258 -803q9 -28 12 -53l4 -27h5l4 27q5 37 10 53l217 692h-154v115h426v-115h-133l-293 -915h-149l-254 772q-3 9 -7 28t-7 27q-5 25 -5 27h-6q0 -7 -4 -27q-3 -8 -7 -27t-7 -28 l-254 -772h-152l-292 915h-132z" />
<glyph unicode="x" horiz-adv-x="1132" d="M59 0v115h164l264 420l-241 380h-176v115h260l207 -340q15 -22 22 -39l10 -20h4q1 3 11 18q8 18 22 43l211 338h250v-115h-170l-244 -380l269 -420h155v-115h-241l-232 379q-3 5 -12 18t-12 21l-11 20h-4q-4 -12 -8 -18l-25 -43l-229 -377h-244z" />
<glyph unicode="y" horiz-adv-x="1175" d="M16 915v115h433v-115h-150l270 -702q11 -32 13 -51l4 -23h6q0 7 4 23q3 8 8.5 26.5t7.5 24.5l271 702h-150v115h426v-115h-135l-438 -1105q-45 -112 -127 -176t-189 -64q-73 0 -141 31q-37 18 -53 30l53 111q15 -14 39 -25q43 -24 98 -24q65 0 115 45.5t82 118.5l57 137 l-368 921h-136z" />
<glyph unicode="z" horiz-adv-x="1054" d="M100 0v98l613 758q21 27 37 43l16 14v5h-23q-6 0 -24 -1.5t-31 -1.5h-446v-182h-127v297h827v-100l-612 -756q-21 -27 -37 -43l-17 -14v-4q8 2 25 2h55h465v182h127v-297h-848z" />
<glyph unicode="{" horiz-adv-x="655" d="M74 598v127q48 8 88 37q86 66 86 199v167q0 95 24.5 166.5t58 108.5t79 59t77.5 27.5t64 5.5h33v-115h-21q-16 0 -31.5 -2.5t-38.5 -10.5t-42 -26t-36.5 -44.5t-27.5 -71t-10 -101.5v-200q0 -123 -82 -205q-38 -38 -82 -55v-5q41 -13 82 -51q82 -78 82 -209v-225 q0 -57 10 -101.5t27.5 -71t36.5 -44.5t42 -26t38.5 -10.5t31.5 -2.5h21v-115q-2 -2 -9 -2h-24q-32 0 -64 5.5t-77.5 27.5t-79 59.5t-58 109t-24.5 167.5v195q0 130 -86 196q-40 29 -88 37z" />
<glyph unicode="|" horiz-adv-x="538" d="M205 -322v1936h129v-1936h-129z" />
<glyph unicode="}" horiz-adv-x="655" d="M70 -82h20q20 0 39 3.5t48 18.5t50 40.5t36.5 76t15.5 117.5v225q0 132 81 209q41 38 82 51v5q-44 17 -82 55q-81 81 -81 205v200q0 67 -15.5 117.5t-36.5 76t-50 40.5t-48 18.5t-39 3.5h-20v115h32q26 0 52 -4t63.5 -16t69 -38t60 -64t45 -101.5t16.5 -143.5v-167 q0 -131 88 -199q40 -29 86 -37v-127q-46 -8 -86 -37q-88 -68 -88 -196v-195q0 -81 -16.5 -144.5t-45 -102t-60 -64.5t-69 -38t-63.5 -16t-52 -4h-24q-6 0 -8 2v115z" />
<glyph unicode="~" horiz-adv-x="1232" d="M154 428q0 164 68.5 240.5t189.5 76.5q62 0 111.5 -22t81.5 -53.5t61.5 -62.5t68.5 -53t86 -22q43 0 74 20.5t45.5 54.5t20.5 65.5t6 64.5h118q0 -161 -68.5 -239t-189.5 -78q-53 0 -96.5 16t-71.5 39.5t-56.5 51t-52 51t-58 39.5t-74.5 16q-43 0 -74 -20.5t-45.5 -54.5 t-20.5 -65.5t-6 -64.5h-118z" />
<glyph unicode="&#xa1;" horiz-adv-x="458" d="M147 868v162h160v-162h-160zM158 -410l6 1063h131l6 -1063h-143z" />
<glyph unicode="&#xa2;" horiz-adv-x="1124" d="M96 721q0 151 48 273t146.5 202t235.5 96v172h115v-172q259 -33 383 -303l-131 -49q-100 221 -303 221q-115 0 -195.5 -59.5t-117.5 -157t-37 -223.5q0 -128 37 -225.5t117.5 -156t195.5 -58.5q204 0 303 219l131 -49q-58 -127 -155 -210t-228 -94v-174h-115v174 q-137 16 -235.5 96t-146.5 202.5t-48 275.5z" />
<glyph unicode="&#xa3;" horiz-adv-x="1245" d="M92 0v121h180v547h-135v112h135v305q0 162 120 270.5t304 108.5q131 0 232 -57q49 -24 88 -57l-84 -103q-35 25 -68 43q-80 43 -168 43q-130 0 -205 -74t-75 -182v-297h389v-112h-389v-545h600v239h131v-362h-1055z" />
<glyph unicode="&#xa5;" horiz-adv-x="1277" d="M94 1440h162l293 -512q20 -35 59 -121l29 -62h4l29 62q39 86 59 121l295 512h162l-361 -619h215v-104h-272l-55 -101v-79h327v-105h-327v-432h-144v432h-333v105h333v79l-57 101h-276v104h217z" />
<glyph unicode="&#xa7;" horiz-adv-x="825" d="M106 -41l70 98q24 -18 47 -30q60 -31 121 -31q97 0 160 60t63 163q0 43 -6 66l-135 878h123l139 -889q8 -31 8 -71q0 -144 -98 -237t-256 -93q-93 0 -170 43q-38 21 -66 43zM131 1135q0 143 98 236t256 93q95 0 172 -43q38 -21 66 -43l-74 -96q-21 18 -47 31 q-62 28 -117 28q-100 0 -163.5 -58.5t-63.5 -160.5q0 -30 8 -61l135 -887h-120l-142 889q-8 33 -8 72z" />
<glyph unicode="&#xa8;" horiz-adv-x="1032" d="M258 1608v176h141v-176h-141zM633 1608v176h141v-176h-141z" />
<glyph unicode="&#xa9;" horiz-adv-x="1658" d="M102 721q0 153 57 290.5t153.5 236.5t230.5 157.5t282 58.5q150 0 286 -58.5t234.5 -157.5t156 -236.5t57.5 -290.5q0 -206 -98 -377.5t-266.5 -270t-369.5 -98.5q-148 0 -282 58t-230.5 157.5t-153.5 238t-57 292.5zM223 721q0 -176 79 -322t217.5 -229.5t305.5 -83.5 q171 0 312.5 83.5t222 229.5t80.5 322q0 175 -80.5 320t-222 229t-312.5 84q-167 0 -305.5 -84t-217.5 -229t-79 -320zM424 717q0 110 48 204.5t146 156t228 61.5q141 0 252 -95q45 -37 82 -96l-95 -63q-25 42 -61 71q-82 70 -174 70q-142 0 -223.5 -90.5t-81.5 -216.5 q0 -127 81 -217t224 -90q97 0 176 71q36 31 59 70l95 -64q-36 -55 -84 -94q-112 -96 -250 -96q-130 0 -228 60.5t-146 154t-48 203.5z" />
<glyph unicode="&#xaa;" horiz-adv-x="878" d="M168 541v96h539v-96h-539zM170 977q0 227 393 227h25v8q0 152 -144 152q-54 0 -122 -29q-35 -16 -52 -30l-51 79q35 28 64 39q84 37 172 37q121 0 183 -64.5t62 -187.5v-413h-108v100h-4q-24 -35 -47 -55q-58 -58 -146 -58q-90 0 -157.5 51.5t-67.5 143.5zM287 987 q0 -45 32.5 -75.5t92.5 -30.5q77 0 126.5 67t49.5 148v18h-27q-36 0 -62 -1t-69.5 -8t-71.5 -19t-49.5 -37.5t-21.5 -61.5z" />
<glyph unicode="&#xab;" horiz-adv-x="1079" d="M100 578l336 421h152l-336 -421l336 -420h-152zM469 578l336 421h151l-335 -421l335 -420h-151z" />
<glyph unicode="&#xac;" horiz-adv-x="1220" d="M119 700v119h954v-495h-123v376h-831z" />
<glyph unicode="&#xad;" horiz-adv-x="1005" d="M213 518v127h580v-127h-580z" />
<glyph unicode="&#xae;" horiz-adv-x="1658" d="M102 721q0 153 57 290.5t153.5 236.5t230.5 157.5t282 58.5q150 0 286 -58.5t234.5 -157.5t156 -236.5t57.5 -290.5q0 -206 -98 -377.5t-266.5 -270t-369.5 -98.5q-148 0 -282 58t-230.5 157.5t-153.5 238t-57 292.5zM223 721q0 -176 79 -322t217.5 -229.5t305.5 -83.5 q171 0 312.5 83.5t222 229.5t80.5 322q0 175 -80.5 320t-222 229t-312.5 84q-167 0 -305.5 -84t-217.5 -229t-79 -320zM584 322v798h284q107 0 173.5 -64.5t66.5 -172.5q0 -85 -44.5 -140.5t-105.5 -70.5v-4l7 -11q9 -9 20 -34l154 -301h-127l-160 323h-154v-323h-114z M698 735h150q66 0 103.5 39.5t37.5 108.5q0 67 -37.5 104t-103.5 37h-150v-289z" />
<glyph unicode="&#xaf;" horiz-adv-x="1032" d="M264 1608v112h504v-112h-504z" />
<glyph unicode="&#xb0;" horiz-adv-x="776" d="M100 1178q0 117 84.5 200.5t202.5 83.5q120 0 204.5 -83.5t84.5 -200.5q0 -118 -84.5 -201.5t-204.5 -83.5q-119 0 -203 83.5t-84 201.5zM221 1178q0 -72 47 -121t119 -49t119 49t47 121q0 70 -47.5 120t-118.5 50t-118.5 -50t-47.5 -120z" />
<glyph unicode="&#xb1;" horiz-adv-x="1241" d="M86 522v119h473v522h125v-522h471v-119h-471v-522h-125v522h-473zM123 -213h995v-119h-995v119z" />
<glyph unicode="&#xb2;" horiz-adv-x="856" d="M133 940q0 65 24.5 120t64 94.5t87 74.5t94.5 66t86.5 62.5t64 72t24.5 86.5q0 67 -46.5 112t-119.5 45q-68 0 -133 -49q-31 -24 -52 -51l-73 72q27 40 67 67q94 66 197 66q126 0 201 -74t75 -182q0 -61 -24 -113t-62.5 -88t-85.5 -68.5t-94 -62.5t-86.5 -61t-64.5 -73 t-27 -91h360v112h101v-211h-572q0 19 -2 27q-4 28 -4 47z" />
<glyph unicode="&#xb3;" horiz-adv-x="815" d="M109 981l71 76q25 -36 53 -53q78 -54 166 -54q73 0 132 53t59 130q0 79 -61 125.5t-140 46.5h-65l-29 63l215 254l31 31l12 10v4q-10 0 -16 -2q-28 -4 -41 -4h-248v-113h-103v209h549v-74l-248 -288q46 -4 90 -21t83 -47t62.5 -80t23.5 -112q0 -119 -89 -204t-217 -85 q-129 0 -219 67q-41 30 -71 68z" />
<glyph unicode="&#xb4;" horiz-adv-x="1032" d="M332 1540l200 244h179l-232 -244h-147z" />
<glyph unicode="&#xb6;" horiz-adv-x="1169" d="M82 969q0 131 66 240t177 170t242 61h492v-127h-371v-1415h-119v596q-130 0 -242 62.5t-178.5 172.5t-66.5 240zM815 -102v1292h117v-1292h-117z" />
<glyph unicode="&#xb7;" horiz-adv-x="565" d="M201 506v170h164v-170h-164z" />
<glyph unicode="&#xb8;" horiz-adv-x="1032" d="M362 -328l27 -6q32 -4 62 -4q47 0 75.5 14.5t28.5 57.5q0 36 -32.5 54.5t-88.5 18.5h-31l58 240l88 -14v-17l-29 -135q63 -6 106.5 -46.5t43.5 -100.5q0 -83 -60 -123.5t-147 -40.5q-36 0 -72 4l-29 6v92z" />
<glyph unicode="&#xb9;" horiz-adv-x="815" d="M135 1536l225 221h107v-792h209v-99h-537v99h213v579q0 17 4 45q2 6 2 19h-4l-8 -11q-2 -2 -9 -11t-15 -17l-113 -109z" />
<glyph unicode="&#xba;" horiz-adv-x="972" d="M143 1126q0 142 100 239t242 97t242 -97t100 -239q0 -146 -99.5 -244t-242.5 -98t-242.5 98t-99.5 244zM178 541v96h621v-96h-621zM256 1126q0 -103 65.5 -170t163.5 -67t164 67t66 170q0 101 -67.5 167.5t-162.5 66.5t-162 -66.5t-67 -167.5z" />
<glyph unicode="&#xbb;" horiz-adv-x="1079" d="M123 158l336 420l-336 421h151l336 -421l-336 -420h-151zM492 158l335 420l-335 421h151l336 -421l-336 -420h-151z" />
<glyph unicode="&#xbc;" horiz-adv-x="1916" d="M117 1219l225 221h107v-793h208v-98h-536v98h213v580q0 17 4 45q2 6 2 18h-4l-8 -10q-2 -2 -9.5 -11.5t-15.5 -17.5l-113 -108zM541 0l688 1440h119l-686 -1440h-121zM1159 236v75l434 580h111v-559h133v-96h-133v-236h-113v236h-432zM1290 332h301v330q0 27 4 59l4 29 h-6q-3 -14 -12 -25q-22 -39 -31 -49l-260 -340v-4z" />
<glyph unicode="&#xbd;" horiz-adv-x="1875" d="M102 1219l226 221h106v-793h209v-98h-537v98h213v580q0 10 5 45q2 6 2 18h-4l-9 -10q-2 -2 -9 -11.5t-15 -17.5l-113 -108zM526 0l688 1440h119l-686 -1440h-121zM1200 74q0 65 24.5 120t64 94t86.5 74t94.5 66.5t87 63t64 71.5t24.5 86q0 67 -46.5 112.5t-119.5 45.5 q-68 0 -133 -49q-31 -24 -52 -51l-73 71q28 42 67 68q93 65 197 65q126 0 201 -74t75 -182q0 -61 -24 -113t-62.5 -88t-85.5 -68.5t-94 -62.5t-86.5 -61t-64.5 -73t-27 -91h360v113h101v-211h-572q0 19 -2 27q-4 28 -4 47z" />
<glyph unicode="&#xbe;" horiz-adv-x="1953" d="M104 664l72 75q25 -36 53 -53q77 -53 166 -53q74 0 132.5 52.5t58.5 129.5q0 79 -61 125.5t-140 46.5h-66l-28 64l215 254l31 30l12 11v4q-11 0 -17 -2q-35 -5 -40 -5h-248v-112h-103v209h549v-74l-248 -289q46 -4 90 -21t82.5 -47t62 -80t23.5 -112q0 -119 -88.5 -204 t-216.5 -85t-219 68q-43 32 -72 68zM571 0l689 1440h118l-686 -1440h-121zM1190 236v75l434 580h111v-559h133v-96h-133v-236h-113v236h-432zM1321 332h301v330q0 27 4 59l4 29h-6q-3 -14 -12 -25q-22 -39 -31 -49l-260 -340v-4z" />
<glyph unicode="&#xbf;" horiz-adv-x="929" d="M109 -68q0 69 20 127.5t52.5 100.5t71.5 80t78 73t71.5 71.5t52.5 84t20 102.5v82h137v-88q0 -65 -19.5 -122t-51.5 -98.5t-70 -79.5t-76 -73.5t-70 -71.5t-51.5 -82.5t-19.5 -98.5q0 -101 75 -168.5t195 -67.5q88 0 176 43q33 17 70 43l78 -102q-43 -39 -88 -60 q-105 -57 -242 -57q-178 0 -293.5 101.5t-115.5 260.5zM463 868v162h162v-162h-162z" />
<glyph unicode="&#xc0;" horiz-adv-x="1468" d="M23 0v119h147l485 1321h158l485 -1321h148v-119h-461v119h166l-137 370h-561l-136 -370h166v-119h-460zM451 1784h178l200 -244h-147zM492 610h483l-215 590q-4 12 -9 34t-8 30l-6 28h-6q0 -8 -4 -28q-3 -8 -7.5 -29.5t-8.5 -34.5z" />
<glyph unicode="&#xc1;" horiz-adv-x="1468" d="M23 0v119h147l485 1321h158l485 -1321h148v-119h-461v119h166l-137 370h-561l-136 -370h166v-119h-460zM492 610h483l-215 590q-4 12 -9 34t-8 30l-6 28h-6q0 -8 -4 -28q-3 -8 -7.5 -29.5t-8.5 -34.5zM635 1540l201 244h178l-232 -244h-147z" />
<glyph unicode="&#xc2;" horiz-adv-x="1468" d="M23 0v119h147l485 1321h158l485 -1321h148v-119h-461v119h166l-137 370h-561l-136 -370h166v-119h-460zM477 1540l172 244h168l170 -244h-141l-111 166h-4l-110 -166h-144zM492 610h483l-215 590q-4 12 -9 34t-8 30l-6 28h-6q0 -8 -4 -28q-3 -8 -7.5 -29.5t-8.5 -34.5z " />
<glyph unicode="&#xc3;" horiz-adv-x="1468" d="M23 0v119h147l485 1321h158l485 -1321h148v-119h-461v119h166l-137 370h-561l-136 -370h166v-119h-460zM410 1546q0 240 190 240q42 0 76 -15t56 -36t41.5 -42t41.5 -36t45 -15q25 0 43 13.5t26 36t11.5 44t3.5 44.5h117q0 -240 -191 -240q-42 0 -76 14.5t-56 35 t-41.5 41.5t-41.5 35.5t-45 14.5q-82 0 -82 -135h-118zM492 610h483l-215 590q-4 12 -9 34t-8 30l-6 28h-6q0 -8 -4 -28q-3 -8 -7.5 -29.5t-8.5 -34.5z" />
<glyph unicode="&#xc4;" horiz-adv-x="1468" d="M23 0v119h147l485 1321h158l485 -1321h148v-119h-461v119h166l-137 370h-561l-136 -370h166v-119h-460zM477 1608v176h141v-176h-141zM492 610h483l-215 590q-4 12 -9 34t-8 30l-6 28h-6q0 -8 -4 -28q-3 -8 -7.5 -29.5t-8.5 -34.5zM852 1608v176h141v-176h-141z" />
<glyph unicode="&#xc5;" horiz-adv-x="1468" d="M23 0v119h147l485 1321h158l485 -1321h148v-119h-461v119h166l-137 370h-561l-136 -370h166v-119h-460zM492 610h483l-215 590q-4 12 -9 34t-8 30l-6 28h-6q0 -8 -4 -28q-3 -8 -7.5 -29.5t-8.5 -34.5zM565 1663q0 72 49 117t119 45q74 0 124 -45t50 -117 q0 -68 -50.5 -112t-123.5 -44q-69 0 -118.5 44t-49.5 112zM662 1663q0 -33 19.5 -53.5t51.5 -20.5q35 0 56.5 20.5t21.5 53.5q0 37 -21.5 58.5t-56.5 21.5q-32 0 -51.5 -21.5t-19.5 -58.5z" />
<glyph unicode="&#xc6;" horiz-adv-x="1888" d="M23 0v119h135l495 1202h-164v119h1246v-299h-125v176h-557v-531h540v-122h-540v-541h594v178h127v-301h-1045v119h180v547h-379l-225 -547h162v-119h-444zM578 784h331v533h-114z" />
<glyph unicode="&#xc7;" horiz-adv-x="1519" d="M111 729q0 154 56.5 290.5t153.5 234t232.5 154t286.5 56.5q74 0 158.5 -14.5t173 -45t146.5 -89.5t58 -137v-154h-137v115q0 49 -40 88.5t-102 62t-127 34t-124 11.5q-165 0 -299 -77t-210.5 -215t-76.5 -310q0 -177 76.5 -321t213 -226t304.5 -82q51 0 114.5 9.5 t132.5 30.5t115 62t46 95v113h137v-154q0 -72 -53.5 -128.5t-137.5 -88.5t-170.5 -49t-169.5 -19l-20 -94q65 -6 108 -46.5t43 -100.5q0 -83 -59.5 -123.5t-146.5 -40.5q-36 0 -72 4l-29 6v92l27 -6q32 -4 61 -4q105 0 105 72q0 36 -32.5 54.5t-88.5 18.5h-31l41 173 q-192 16 -344 120t-235.5 269t-83.5 360z" />
<glyph unicode="&#xc8;" horiz-adv-x="1282" d="M111 0v119h188v1202h-188v119h1017v-299h-131v176h-555v-531h545v-122h-545v-541h594v186h129v-309h-1054zM375 1784h178l201 -244h-148z" />
<glyph unicode="&#xc9;" horiz-adv-x="1282" d="M111 0v119h188v1202h-188v119h1017v-299h-131v176h-555v-531h545v-122h-545v-541h594v186h129v-309h-1054zM557 1540l201 244h178l-231 -244h-148z" />
<glyph unicode="&#xca;" horiz-adv-x="1282" d="M111 0v119h188v1202h-188v119h1017v-299h-131v176h-555v-531h545v-122h-545v-541h594v186h129v-309h-1054zM399 1540l172 244h168l170 -244h-141l-111 166h-4l-110 -166h-144z" />
<glyph unicode="&#xcb;" horiz-adv-x="1282" d="M111 0v119h188v1202h-188v119h1017v-299h-131v176h-555v-531h545v-122h-545v-541h594v186h129v-309h-1054zM399 1608v176h142v-176h-142zM774 1608v176h141v-176h-141z" />
<glyph unicode="&#xcc;" horiz-adv-x="741" d="M90 1784h178l201 -244h-147zM111 0v119h188v1202h-188v119h520v-119h-189v-1202h189v-119h-520z" />
<glyph unicode="&#xcd;" horiz-adv-x="741" d="M111 0v119h188v1202h-188v119h520v-119h-189v-1202h189v-119h-520zM272 1540l201 244h178l-231 -244h-148z" />
<glyph unicode="&#xce;" horiz-adv-x="741" d="M111 0v119h188v1202h-188v119h520v-119h-189v-1202h189v-119h-520zM115 1540l172 244h168l170 -244h-142l-110 166h-4l-111 -166h-143z" />
<glyph unicode="&#xcf;" horiz-adv-x="741" d="M111 0v119h188v1202h-188v119h520v-119h-189v-1202h189v-119h-520zM115 1608v176h141v-176h-141zM489 1608v176h142v-176h-142z" />
<glyph unicode="&#xd0;" horiz-adv-x="1607" d="M111 0v119h188v543h-160v122h160v537h-188v119h655q216 0 378.5 -84t253.5 -247.5t91 -387.5q0 -339 -197 -530t-526 -191h-655zM442 123h310q269 0 428 156.5t159 441.5q0 284 -159 440t-428 156h-310v-533h349v-122h-349v-539z" />
<glyph unicode="&#xd1;" horiz-adv-x="1705" d="M111 0v119h188v1202h-188v119h327l807 -1137q13 -18 29 -55q2 -4 14 -33h4l-4 35q-2 23 -2 65v1006h-190v119h522v-119h-188v-1321h-140l-807 1137q-9 15 -28 57q-8 13 -15 31h-4l4 -35q4 -46 2 -64v-1007h191v-119h-522zM539 1546q0 240 190 240q42 0 76 -15t56 -36 t41.5 -42t41.5 -36t45 -15q25 0 43 13.5t26 36t11.5 44t3.5 44.5h117q0 -240 -191 -240q-42 0 -76 14.5t-56 35t-41.5 41.5t-41.5 35.5t-45 14.5q-82 0 -82 -135h-118z" />
<glyph unicode="&#xd2;" horiz-adv-x="1689" d="M111 729q0 153 57.5 290t155.5 234t233.5 154t286.5 57t287 -57t234.5 -154t156 -234t57.5 -290q0 -156 -57.5 -295.5t-155.5 -240t-234.5 -159.5t-287.5 -59q-150 0 -286 59t-234 159.5t-155.5 240.5t-57.5 295zM260 729q0 -173 78.5 -316.5t212.5 -225t293 -81.5 t293.5 81.5t213.5 225t79 316.5q0 169 -79 308t-213.5 217.5t-293.5 78.5t-293 -78.5t-212.5 -217.5t-78.5 -308zM563 1784h178l201 -244h-147z" />
<glyph unicode="&#xd3;" horiz-adv-x="1689" d="M111 729q0 153 57.5 290t155.5 234t233.5 154t286.5 57t287 -57t234.5 -154t156 -234t57.5 -290q0 -156 -57.5 -295.5t-155.5 -240t-234.5 -159.5t-287.5 -59q-150 0 -286 59t-234 159.5t-155.5 240.5t-57.5 295zM260 729q0 -173 78.5 -316.5t212.5 -225t293 -81.5 t293.5 81.5t213.5 225t79 316.5q0 169 -79 308t-213.5 217.5t-293.5 78.5t-293 -78.5t-212.5 -217.5t-78.5 -308zM745 1540l201 244h178l-231 -244h-148z" />
<glyph unicode="&#xd4;" horiz-adv-x="1689" d="M111 729q0 153 57.5 290t155.5 234t233.5 154t286.5 57t287 -57t234.5 -154t156 -234t57.5 -290q0 -156 -57.5 -295.5t-155.5 -240t-234.5 -159.5t-287.5 -59q-150 0 -286 59t-234 159.5t-155.5 240.5t-57.5 295zM260 729q0 -173 78.5 -316.5t212.5 -225t293 -81.5 t293.5 81.5t213.5 225t79 316.5q0 169 -79 308t-213.5 217.5t-293.5 78.5t-293 -78.5t-212.5 -217.5t-78.5 -308zM590 1540l172 244h168l170 -244h-142l-110 166h-4l-111 -166h-143z" />
<glyph unicode="&#xd5;" horiz-adv-x="1689" d="M111 729q0 153 57.5 290t155.5 234t233.5 154t286.5 57t287 -57t234.5 -154t156 -234t57.5 -290q0 -156 -57.5 -295.5t-155.5 -240t-234.5 -159.5t-287.5 -59q-150 0 -286 59t-234 159.5t-155.5 240.5t-57.5 295zM260 729q0 -173 78.5 -316.5t212.5 -225t293 -81.5 t293.5 81.5t213.5 225t79 316.5q0 169 -79 308t-213.5 217.5t-293.5 78.5t-293 -78.5t-212.5 -217.5t-78.5 -308zM520 1546q0 240 191 240q42 0 76 -15t56 -36t41.5 -42t41.5 -36t45 -15q25 0 43 13.5t26 36t11.5 44t3.5 44.5h116q0 -240 -190 -240q-42 0 -76 14.5t-56 35 t-41.5 41.5t-41.5 35.5t-45 14.5q-82 0 -82 -135h-119z" />
<glyph unicode="&#xd6;" horiz-adv-x="1689" d="M111 729q0 153 57.5 290t155.5 234t233.5 154t286.5 57t287 -57t234.5 -154t156 -234t57.5 -290q0 -156 -57.5 -295.5t-155.5 -240t-234.5 -159.5t-287.5 -59q-150 0 -286 59t-234 159.5t-155.5 240.5t-57.5 295zM260 729q0 -173 78.5 -316.5t212.5 -225t293 -81.5 t293.5 81.5t213.5 225t79 316.5q0 169 -79 308t-213.5 217.5t-293.5 78.5t-293 -78.5t-212.5 -217.5t-78.5 -308zM588 1608v176h141v-176h-141zM963 1608v176h141v-176h-141z" />
<glyph unicode="&#xd7;" horiz-adv-x="1241" d="M98 84l441 498l-441 497l84 84l439 -493l438 493l84 -84l-445 -497l445 -498l-84 -84l-438 494l-439 -494z" />
<glyph unicode="&#xd8;" horiz-adv-x="1687" d="M111 729q0 153 57.5 290t155.5 234t233.5 154t286.5 57q211 0 387 -110l96 137l86 -61l-98 -136q124 -101 193 -247.5t69 -317.5q0 -155 -57.5 -295t-155.5 -240.5t-234 -159.5t-286 -59q-212 0 -391 115l-101 -139l-86 59l103 142q-122 107 -190 255t-68 322zM258 729 q0 -138 51 -256t144 -205l698 975q-137 88 -307 88q-159 0 -293.5 -78.5t-213.5 -217t-79 -306.5zM530 201q139 -92 314 -92q161 0 295.5 81t212.5 223.5t78 315.5q0 137 -51.5 253.5t-145.5 199.5z" />
<glyph unicode="&#xd9;" horiz-adv-x="1617" d="M68 1321v119h520v-119h-189v-789q0 -163 64 -264q51 -78 140 -120t206 -42q118 0 208.5 43.5t137.5 124.5q64 107 64 263v784h-189v119h520v-119h-188v-791q0 -203 -92 -340q-72 -104 -191.5 -159.5t-269.5 -55.5q-153 0 -274.5 57t-190.5 161q-88 126 -88 337v791h-188z M526 1784h179l200 -244h-147z" />
<glyph unicode="&#xda;" horiz-adv-x="1617" d="M68 1321v119h520v-119h-189v-789q0 -163 64 -264q51 -78 140 -120t206 -42q118 0 208.5 43.5t137.5 124.5q64 107 64 263v784h-189v119h520v-119h-188v-791q0 -203 -92 -340q-72 -104 -191.5 -159.5t-269.5 -55.5q-153 0 -274.5 57t-190.5 161q-88 126 -88 337v791h-188z M709 1540l200 244h178l-231 -244h-147z" />
<glyph unicode="&#xdb;" horiz-adv-x="1617" d="M68 1321v119h520v-119h-189v-789q0 -163 64 -264q51 -78 140 -120t206 -42q118 0 208.5 43.5t137.5 124.5q64 107 64 263v784h-189v119h520v-119h-188v-791q0 -203 -92 -340q-72 -104 -191.5 -159.5t-269.5 -55.5q-153 0 -274.5 57t-190.5 161q-88 126 -88 337v791h-188z M553 1540l172 244h168l170 -244h-141l-111 166h-4l-111 -166h-143z" />
<glyph unicode="&#xdc;" horiz-adv-x="1617" d="M68 1321v119h520v-119h-189v-789q0 -163 64 -264q51 -78 140 -120t206 -42q118 0 208.5 43.5t137.5 124.5q64 107 64 263v784h-189v119h520v-119h-188v-791q0 -203 -92 -340q-72 -104 -191.5 -159.5t-269.5 -55.5q-153 0 -274.5 57t-190.5 161q-88 126 -88 337v791h-188z M551 1608v176h141v-176h-141zM926 1608v176h141v-176h-141z" />
<glyph unicode="&#xdd;" horiz-adv-x="1318" d="M23 1321v119h454v-119h-160l312 -524l20 -37q3 -5 8 -19h5q5 14 8 19l20 37l314 524h-160v119h452v-119h-141l-424 -703v-499h189v-119h-521v119h189v499l-424 703h-141zM563 1540l201 244h178l-231 -244h-148z" />
<glyph unicode="&#xde;" horiz-adv-x="1316" d="M111 0v119h188v1202h-188v119h520v-119h-189v-166h363q196 0 317 -109.5t121 -297.5t-121 -300t-319 -112h-361v-217h189v-119h-520zM442 455h340q147 0 230.5 76.5t83.5 216.5q0 139 -83.5 213.5t-228.5 74.5h-342v-581z" />
<glyph unicode="&#xdf;" horiz-adv-x="1239" d="M61 0v115h175v972q0 89 35 162t93.5 119t131.5 71t151 25q160 0 259.5 -90.5t99.5 -214.5q0 -58 -23.5 -109.5t-57 -87.5t-67 -68.5t-57 -67.5t-23.5 -70q0 -33 30 -66.5t74.5 -61.5t96.5 -65t96.5 -75t74.5 -93t30 -116q0 -94 -48 -162.5t-121.5 -99.5t-162.5 -31 q-123 0 -225 32q-39 12 -78 33v133q44 -25 82 -37q102 -36 211 -36q85 0 141.5 43t56.5 129q0 52 -41.5 100t-100 86.5t-117.5 78t-100.5 92.5t-41.5 112q0 49 23.5 94t56.5 79.5t66.5 68.5t57 76t23.5 87q0 72 -58 127t-161 55q-106 0 -187 -70.5t-81 -191.5v-1077h-314z " />
<glyph unicode="&#xe0;" d="M78 283q0 69 26 124.5t65.5 91t98.5 61.5t112 39.5t120 21t108 9t90 1.5h68v43q0 260 -248 260q-107 0 -215 -49q-35 -16 -84 -51l-65 104q46 37 98 59q118 58 274 58q379 0 379 -387v-508q0 -45 45 -45h113v-115h-168q-65 0 -94 28t-29 85v18q0 31 4 59q2 8 2 21h-4 q-26 -62 -78 -117q-111 -119 -274 -119q-66 0 -126 19t-109.5 55.5t-79 97t-29.5 136.5zM221 297q0 -85 59.5 -146t161.5 -61q75 0 137.5 35t102.5 91t62 124t22 137v49h-59q-486 0 -486 -229zM248 1440h178l201 -244h-148z" />
<glyph unicode="&#xe1;" d="M78 283q0 69 26 124.5t65.5 91t98.5 61.5t112 39.5t120 21t108 9t90 1.5h68v43q0 260 -248 260q-107 0 -215 -49q-35 -16 -84 -51l-65 104q46 37 98 59q118 58 274 58q379 0 379 -387v-508q0 -45 45 -45h113v-115h-168q-65 0 -94 28t-29 85v18q0 31 4 59q2 8 2 21h-4 q-26 -62 -78 -117q-111 -119 -274 -119q-66 0 -126 19t-109.5 55.5t-79 97t-29.5 136.5zM221 297q0 -85 59.5 -146t161.5 -61q75 0 137.5 35t102.5 91t62 124t22 137v49h-59q-486 0 -486 -229zM430 1196l201 244h178l-231 -244h-148z" />
<glyph unicode="&#xe2;" d="M78 283q0 69 26 124.5t65.5 91t98.5 61.5t112 39.5t120 21t108 9t90 1.5h68v43q0 260 -248 260q-107 0 -215 -49q-35 -16 -84 -51l-65 104q46 37 98 59q118 58 274 58q379 0 379 -387v-508q0 -45 45 -45h113v-115h-168q-65 0 -94 28t-29 85v18q0 31 4 59q2 8 2 21h-4 q-26 -62 -78 -117q-111 -119 -274 -119q-66 0 -126 19t-109.5 55.5t-79 97t-29.5 136.5zM221 297q0 -85 59.5 -146t161.5 -61q75 0 137.5 35t102.5 91t62 124t22 137v49h-59q-486 0 -486 -229zM272 1196l172 244h168l170 -244h-141l-111 166h-4l-110 -166h-144z" />
<glyph unicode="&#xe3;" d="M78 283q0 69 26 124.5t65.5 91t98.5 61.5t112 39.5t120 21t108 9t90 1.5h68v43q0 260 -248 260q-107 0 -215 -49q-35 -16 -84 -51l-65 104q46 37 98 59q118 58 274 58q379 0 379 -387v-508q0 -45 45 -45h113v-115h-168q-65 0 -94 28t-29 85v18q0 31 4 59q2 8 2 21h-4 q-26 -62 -78 -117q-111 -119 -274 -119q-66 0 -126 19t-109.5 55.5t-79 97t-29.5 136.5zM203 1202q0 240 190 240q42 0 76 -15t56 -36t41.5 -42t41.5 -36t45 -15q25 0 43 13.5t26 36t11.5 44t3.5 44.5h117q0 -240 -190 -240q-42 0 -76 14.5t-56.5 35t-42 41.5t-41.5 35.5 t-45 14.5q-81 0 -81 -135h-119zM221 297q0 -85 59.5 -146t161.5 -61q75 0 137.5 35t102.5 91t62 124t22 137v49h-59q-486 0 -486 -229z" />
<glyph unicode="&#xe4;" d="M78 283q0 69 26 124.5t65.5 91t98.5 61.5t112 39.5t120 21t108 9t90 1.5h68v43q0 260 -248 260q-107 0 -215 -49q-35 -16 -84 -51l-65 104q46 37 98 59q118 58 274 58q379 0 379 -387v-508q0 -45 45 -45h113v-115h-168q-65 0 -94 28t-29 85v18q0 31 4 59q2 8 2 21h-4 q-26 -62 -78 -117q-111 -119 -274 -119q-66 0 -126 19t-109.5 55.5t-79 97t-29.5 136.5zM221 297q0 -85 59.5 -146t161.5 -61q75 0 137.5 35t102.5 91t62 124t22 137v49h-59q-486 0 -486 -229zM270 1264v176h142v-176h-142zM645 1264v176h141v-176h-141z" />
<glyph unicode="&#xe5;" d="M78 283q0 69 26 124.5t65.5 91t98.5 61.5t112 39.5t120 21t108 9t90 1.5h68v43q0 260 -248 260q-107 0 -215 -49q-35 -16 -84 -51l-65 104q46 37 98 59q118 58 274 58q379 0 379 -387v-508q0 -45 45 -45h113v-115h-168q-65 0 -94 28t-29 85v18q0 31 4 59q2 8 2 21h-4 q-26 -62 -78 -117q-111 -119 -274 -119q-66 0 -126 19t-109.5 55.5t-79 97t-29.5 136.5zM221 297q0 -85 59.5 -146t161.5 -61q75 0 137.5 35t102.5 91t62 124t22 137v49h-59q-486 0 -486 -229zM360 1319q0 72 49 117t119 45q74 0 124 -45t50 -117q0 -68 -50.5 -112 t-123.5 -44q-69 0 -118.5 44t-49.5 112zM457 1319q0 -33 19.5 -53.5t51.5 -20.5q35 0 56.5 20.5t21.5 53.5q0 37 -21.5 58.5t-56.5 21.5q-32 0 -51.5 -21.5t-19.5 -58.5z" />
<glyph unicode="&#xe6;" horiz-adv-x="1777" d="M80 281q0 68 23 122t58 89.5t90 61t105 38.5t118 20.5t114 9t108 1.5h70v41q0 270 -260 270q-111 0 -211 -49q-30 -14 -82 -51l-63 104q42 36 96 59q118 58 270 58q275 0 346 -213h4q61 105 161 159t226 54q201 0 314.5 -134t113.5 -335q0 -27 -2 -41q-2 -8 -2 -25h-774 q4 -199 110.5 -310.5t272.5 -111.5q113 0 227 64q51 28 84 61l66 -104q-38 -33 -104 -72q-126 -72 -279 -72q-158 0 -275 75.5t-178 211.5h-4q-7 -22 -20 -50.5t-45 -72.5t-73 -78.5t-107.5 -60t-143.5 -25.5q-149 0 -251.5 81.5t-102.5 224.5zM221 289q0 -81 61.5 -139 t168.5 -58q72 0 133 34.5t100.5 90.5t61.5 124t22 136v41h-121q-43 0 -78.5 -1.5t-81.5 -7t-81.5 -15t-71.5 -27t-59.5 -41t-38.5 -58.5t-15 -79zM911 623h627q-4 152 -88.5 232.5t-202.5 80.5q-132 0 -222 -80.5t-114 -232.5z" />
<glyph unicode="&#xe7;" horiz-adv-x="1126" d="M94 512q0 156 72.5 281t195.5 193.5t271 68.5q55 0 116 -11.5t123 -36t102 -70.5t40 -106v-112h-129v76q0 43 -44 75t-99.5 46t-106.5 14q-170 0 -283.5 -115t-113.5 -299q0 -187 116 -301.5t287 -114.5q56 0 110.5 14t90 31t70 41.5t45.5 34.5t22 21l59 -107 q-16 -16 -39.5 -34t-73.5 -49.5t-121.5 -53t-148.5 -23.5l-20 -94q63 -6 106 -46.5t43 -100.5q0 -83 -58.5 -123.5t-145.5 -40.5q-36 0 -72 4l-29 6v92l25 -6q32 -4 61 -4q47 0 76 14.5t29 57.5q0 36 -32.5 54.5t-88.5 18.5h-29l41 175q-202 26 -334.5 168.5t-132.5 361.5z " />
<glyph unicode="&#xe8;" horiz-adv-x="1130" d="M96 514q0 124 40 227t109.5 171t161.5 105.5t197 37.5q138 0 237.5 -66t147 -172t47.5 -237q0 -27 -2 -41l-4 -25h-790q3 -128 58.5 -223.5t144 -143t196.5 -47.5q117 0 227 62q48 26 86 61l64 -104q-40 -35 -103 -72q-122 -72 -278 -72q-151 0 -274 68t-194 191.5 t-71 279.5zM246 616h645q-4 156 -86.5 239t-204.5 83q-134 0 -232 -85t-122 -237zM324 1440h178l200 -244h-147z" />
<glyph unicode="&#xe9;" horiz-adv-x="1130" d="M96 514q0 124 40 227t109.5 171t161.5 105.5t197 37.5q138 0 237.5 -66t147 -172t47.5 -237q0 -27 -2 -41l-4 -25h-790q3 -128 58.5 -223.5t144 -143t196.5 -47.5q117 0 227 62q48 26 86 61l64 -104q-40 -35 -103 -72q-122 -72 -278 -72q-151 0 -274 68t-194 191.5 t-71 279.5zM246 616h645q-4 156 -86.5 239t-204.5 83q-134 0 -232 -85t-122 -237zM506 1196l201 244h178l-232 -244h-147z" />
<glyph unicode="&#xea;" horiz-adv-x="1130" d="M96 514q0 124 40 227t109.5 171t161.5 105.5t197 37.5q138 0 237.5 -66t147 -172t47.5 -237q0 -27 -2 -41l-4 -25h-790q3 -128 58.5 -223.5t144 -143t196.5 -47.5q117 0 227 62q48 26 86 61l64 -104q-40 -35 -103 -72q-122 -72 -278 -72q-151 0 -274 68t-194 191.5 t-71 279.5zM246 616h645q-4 156 -86.5 239t-204.5 83q-134 0 -232 -85t-122 -237zM350 1196l172 244h168l170 -244h-141l-111 166h-4l-110 -166h-144z" />
<glyph unicode="&#xeb;" horiz-adv-x="1130" d="M96 514q0 124 40 227t109.5 171t161.5 105.5t197 37.5q138 0 237.5 -66t147 -172t47.5 -237q0 -27 -2 -41l-4 -25h-790q3 -128 58.5 -223.5t144 -143t196.5 -47.5q117 0 227 62q48 26 86 61l64 -104q-40 -35 -103 -72q-122 -72 -278 -72q-151 0 -274 68t-194 191.5 t-71 279.5zM246 616h645q-4 156 -86.5 239t-204.5 83q-134 0 -232 -85t-122 -237zM348 1264v176h141v-176h-141zM723 1264v176h141v-176h-141z" />
<glyph unicode="&#xec;" horiz-adv-x="622" d="M41 1440h178l201 -244h-148zM94 915v115h299v-915h158v-115h-455v115h158v800h-160z" />
<glyph unicode="&#xed;" horiz-adv-x="622" d="M94 915v115h299v-915h158v-115h-455v115h158v800h-160zM223 1196l201 244h178l-231 -244h-148z" />
<glyph unicode="&#xee;" horiz-adv-x="622" d="M68 1196l172 244h168l170 -244h-142l-110 166h-4l-111 -166h-143zM94 915v115h299v-915h158v-115h-455v115h158v800h-160z" />
<glyph unicode="&#xef;" horiz-adv-x="622" d="M82 1264v176h141v-176h-141zM94 915v115h299v-915h158v-115h-455v115h158v800h-160zM406 1264v176h141v-176h-141z" />
<glyph unicode="&#xf0;" horiz-adv-x="1202" d="M98 475q0 74 19.5 143.5t60 131t97.5 107.5t138 72.5t175 26.5q134 0 221 -55q42 -23 74 -55h4q-69 198 -256 328l-359 -162l-28 90l282 129q-126 67 -295 108l39 119q244 -60 410 -162l262 121l27 -90l-201 -92q142 -116 225.5 -285t83.5 -391q0 -85 -18 -166.5 t-58 -157.5t-97.5 -133.5t-143.5 -92t-189 -34.5q-110 0 -201 42.5t-149.5 113t-90.5 159.5t-32 185zM242 473q0 -97 37.5 -180.5t115 -138t180.5 -54.5q91 0 163 39.5t113.5 103.5t63 138t21.5 151q0 134 -92 220t-244 86q-89 0 -159.5 -31.5t-112.5 -84t-64 -116.5 t-22 -133z" />
<glyph unicode="&#xf1;" horiz-adv-x="1380" d="M84 915v115h197q125 0 125 -115v-59q0 -16 -5 -51l-4 -23h4q9 26 29 58t57 71t83 70t112 52.5t139 21.5q184 0 263 -100.5t79 -299.5v-540h174v-115h-313v618q0 55 -4 95.5t-18 82.5t-38 68t-65.5 43t-99.5 17q-168 0 -279.5 -127t-111.5 -301v-381h174v-115h-488v115 h174v755q0 45 -45 45h-139zM412 1202q0 240 190 240q42 0 76 -15t56 -36t41.5 -42t41.5 -36t45 -15q25 0 43 13.5t26 36t11.5 44t3.5 44.5h117q0 -240 -191 -240q-42 0 -76 14.5t-56 35t-41.5 41.5t-41.5 35.5t-45 14.5q-82 0 -82 -135h-118z" />
<glyph unicode="&#xf2;" horiz-adv-x="1271" d="M92 520q0 149 73 272t197.5 193t272.5 70q149 0 274 -70t198 -193t73 -272q0 -114 -43 -216t-116.5 -173.5t-174 -113.5t-211.5 -42t-211 42t-173 113.5t-116 173.5t-43 216zM236 520q0 -178 116.5 -299t282.5 -121q167 0 284 120.5t117 299.5q0 175 -117 292.5 t-284 117.5q-166 0 -282.5 -117.5t-116.5 -292.5zM354 1440h178l201 -244h-147z" />
<glyph unicode="&#xf3;" horiz-adv-x="1271" d="M92 520q0 149 73 272t197.5 193t272.5 70q149 0 274 -70t198 -193t73 -272q0 -114 -43 -216t-116.5 -173.5t-174 -113.5t-211.5 -42t-211 42t-173 113.5t-116 173.5t-43 216zM236 520q0 -178 116.5 -299t282.5 -121q167 0 284 120.5t117 299.5q0 175 -117 292.5 t-284 117.5q-166 0 -282.5 -117.5t-116.5 -292.5zM537 1196l200 244h178l-231 -244h-147z" />
<glyph unicode="&#xf4;" horiz-adv-x="1271" d="M92 520q0 149 73 272t197.5 193t272.5 70q149 0 274 -70t198 -193t73 -272q0 -114 -43 -216t-116.5 -173.5t-174 -113.5t-211.5 -42t-211 42t-173 113.5t-116 173.5t-43 216zM236 520q0 -178 116.5 -299t282.5 -121q167 0 284 120.5t117 299.5q0 175 -117 292.5 t-284 117.5q-166 0 -282.5 -117.5t-116.5 -292.5zM381 1196l172 244h168l170 -244h-141l-111 166h-4l-111 -166h-143z" />
<glyph unicode="&#xf5;" horiz-adv-x="1271" d="M92 520q0 149 73 272t197.5 193t272.5 70q149 0 274 -70t198 -193t73 -272q0 -114 -43 -216t-116.5 -173.5t-174 -113.5t-211.5 -42t-211 42t-173 113.5t-116 173.5t-43 216zM236 520q0 -178 116.5 -299t282.5 -121q167 0 284 120.5t117 299.5q0 175 -117 292.5 t-284 117.5q-166 0 -282.5 -117.5t-116.5 -292.5zM311 1202q0 240 191 240q42 0 76 -15t56 -36t41.5 -42t41.5 -36t45 -15q25 0 43 13.5t26 36t11.5 44t3.5 44.5h117q0 -240 -191 -240q-42 0 -76 14.5t-56 35t-41.5 41.5t-41.5 35.5t-45 14.5q-82 0 -82 -135h-119z" />
<glyph unicode="&#xf6;" horiz-adv-x="1271" d="M92 520q0 149 73 272t197.5 193t272.5 70q149 0 274 -70t198 -193t73 -272q0 -114 -43 -216t-116.5 -173.5t-174 -113.5t-211.5 -42t-211 42t-173 113.5t-116 173.5t-43 216zM236 520q0 -178 116.5 -299t282.5 -121q167 0 284 120.5t117 299.5q0 175 -117 292.5 t-284 117.5q-166 0 -282.5 -117.5t-116.5 -292.5zM379 1264v176h141v-176h-141zM754 1264v176h141v-176h-141z" />
<glyph unicode="&#xf7;" horiz-adv-x="1241" d="M119 522v119h1003v-119h-1003zM543 125v151h153v-151h-153zM543 887v151h153v-151h-153z" />
<glyph unicode="&#xf8;" horiz-adv-x="1271" d="M92 520q0 149 73 272t197.5 193t272.5 70q154 0 285 -78l79 110l74 -53l-78 -110q87 -74 136 -178.5t49 -225.5q0 -114 -43 -216t-116 -173.5t-173 -113.5t-211 -42q-152 0 -268 72l-80 -110l-74 55l76 104q-94 75 -146.5 185t-52.5 239zM236 520q0 -187 133 -313 l475 663q-101 60 -207 60q-167 0 -284 -117.5t-117 -292.5zM444 154q96 -54 193 -54q166 0 282.5 121t116.5 299q0 84 -33 159.5t-90 131.5z" />
<glyph unicode="&#xf9;" horiz-adv-x="1333" d="M35 915v115h323v-620q0 -55 4 -95.5t18 -82.5t37.5 -68t66 -43t100.5 -17q111 0 199.5 63t134 162t45.5 212v374h-185v115h324v-872q0 -45 45 -45h117v-113h-174q-66 0 -94.5 27.5t-28.5 87.5v51q0 13 1 30t1 23v21h-4q-12 -34 -40.5 -74.5t-76.5 -85.5t-124.5 -75 t-166.5 -30q-178 0 -258 97.5t-80 302.5v540h-184zM356 1440h179l200 -244h-147z" />
<glyph unicode="&#xfa;" horiz-adv-x="1333" d="M35 915v115h323v-620q0 -55 4 -95.5t18 -82.5t37.5 -68t66 -43t100.5 -17q111 0 199.5 63t134 162t45.5 212v374h-185v115h324v-872q0 -45 45 -45h117v-113h-174q-66 0 -94.5 27.5t-28.5 87.5v51q0 13 1 30t1 23v21h-4q-12 -34 -40.5 -74.5t-76.5 -85.5t-124.5 -75 t-166.5 -30q-178 0 -258 97.5t-80 302.5v540h-184zM539 1196l200 244h179l-232 -244h-147z" />
<glyph unicode="&#xfb;" horiz-adv-x="1333" d="M35 915v115h323v-620q0 -55 4 -95.5t18 -82.5t37.5 -68t66 -43t100.5 -17q111 0 199.5 63t134 162t45.5 212v374h-185v115h324v-872q0 -45 45 -45h117v-113h-174q-66 0 -94.5 27.5t-28.5 87.5v51q0 13 1 30t1 23v21h-4q-12 -34 -40.5 -74.5t-76.5 -85.5t-124.5 -75 t-166.5 -30q-178 0 -258 97.5t-80 302.5v540h-184zM381 1196l172 244h168l170 -244h-141l-111 166h-4l-111 -166h-143z" />
<glyph unicode="&#xfc;" horiz-adv-x="1333" d="M35 915v115h323v-620q0 -55 4 -95.5t18 -82.5t37.5 -68t66 -43t100.5 -17q111 0 199.5 63t134 162t45.5 212v374h-185v115h324v-872q0 -45 45 -45h117v-113h-174q-66 0 -94.5 27.5t-28.5 87.5v51q0 13 1 30t1 23v21h-4q-12 -34 -40.5 -74.5t-76.5 -85.5t-124.5 -75 t-166.5 -30q-178 0 -258 97.5t-80 302.5v540h-184zM381 1264v176h141v-176h-141zM756 1264v176h141v-176h-141z" />
<glyph unicode="&#xfd;" horiz-adv-x="1175" d="M16 915v115h433v-115h-150l270 -702q11 -32 13 -51l4 -23h6q0 7 4 23q3 8 8.5 26.5t7.5 24.5l271 702h-150v115h426v-115h-135l-438 -1105q-45 -112 -127 -176t-189 -64q-73 0 -141 31q-37 18 -53 30l53 111q15 -14 39 -25q43 -24 98 -24q65 0 115 45.5t82 118.5l57 137 l-368 921h-136zM500 1196l200 244h179l-232 -244h-147z" />
<glyph unicode="&#xfe;" horiz-adv-x="1220" d="M8 1325v115h316v-500v-59q0 -17 -2 -25h4q26 56 73 100q111 99 273 99q208 0 329 -149.5t121 -389.5q0 -242 -128 -391.5t-330 -149.5q-152 0 -265 101q-50 47 -75 98h-5q0 -9 3 -24q2 -16 2 -66v-379h174v-115h-488v115h174v1620h-176zM319 514q0 -112 38.5 -205 t115 -151t176.5 -58q143 0 236.5 114t93.5 302q0 185 -90.5 299.5t-233.5 114.5q-67 0 -126 -24t-107 -72.5t-75.5 -130.5t-27.5 -189z" />
<glyph unicode="&#xff;" horiz-adv-x="1175" d="M16 915v115h433v-115h-150l270 -702q11 -32 13 -51l4 -23h6q0 7 4 23q3 8 8.5 26.5t7.5 24.5l271 702h-150v115h426v-115h-135l-438 -1105q-45 -112 -127 -176t-189 -64q-73 0 -141 31q-37 18 -53 30l53 111q15 -14 39 -25q43 -24 98 -24q65 0 115 45.5t82 118.5l57 137 l-368 921h-136zM342 1264v176h141v-176h-141zM717 1264v176h141v-176h-141z" />
<glyph unicode="&#x152;" horiz-adv-x="1970" d="M113 721q0 154 55.5 290.5t152 235t233.5 156t294 57.5q44 0 128.5 -10t115.5 -10h727v-299h-127v176h-557v-531h540v-122h-540v-541h596v178h124v-301h-761q-29 0 -115 -10t-131 -10q-157 0 -294 57.5t-233.5 156t-152 235.5t-55.5 292zM260 721q0 -129 43 -242.5 t119.5 -195.5t186.5 -129.5t239 -47.5q60 0 100 9l43 8v1194l-43 8q-36 8 -100 8q-129 0 -239.5 -47.5t-186.5 -129.5t-119 -194.5t-43 -240.5z" />
<glyph unicode="&#x153;" horiz-adv-x="2070" d="M94 512q0 160 74 285t196 191.5t269 66.5q154 0 276 -73.5t189 -203.5h4q61 133 176.5 205t265.5 72q138 0 237.5 -66t147 -172t47.5 -237q0 -29 -2 -43l-4 -25h-788q4 -98 37.5 -178t88.5 -131t125 -78t148 -27q111 0 225 64q48 26 86 61l64 -104q-40 -35 -103 -72 q-122 -72 -278 -72q-159 0 -283 75t-186 206h-4q-67 -132 -189 -206.5t-280 -74.5q-147 0 -269 65t-196 189t-74 283zM238 512q0 -182 115 -297t282 -115q169 0 285 116.5t116 303.5q0 183 -117.5 296.5t-283.5 113.5q-167 0 -282 -116.5t-115 -301.5zM1188 616h645 q-4 153 -87.5 237.5t-203.5 84.5q-134 0 -232 -85t-122 -237z" />
<glyph unicode="&#x178;" horiz-adv-x="1318" d="M23 1321v119h454v-119h-160l312 -524l20 -37q3 -5 8 -19h5q5 14 8 19l20 37l314 524h-160v119h452v-119h-141l-424 -703v-499h189v-119h-521v119h189v499l-424 703h-141zM403 1608v176h142v-176h-142zM778 1608v176h142v-176h-142z" />
<glyph unicode="&#x2c6;" horiz-adv-x="1032" d="M260 1540l172 244h168l170 -244h-141l-111 166h-4l-111 -166h-143z" />
<glyph unicode="&#x2dc;" horiz-adv-x="1032" d="M190 1546q0 240 191 240q42 0 76 -15t56 -36t41.5 -42t41.5 -36t45 -15q25 0 43 13.5t26 36t11.5 44t3.5 44.5h117q0 -240 -191 -240q-42 0 -76 14.5t-56 35t-41.5 41.5t-41.5 35.5t-45 14.5q-82 0 -82 -135h-119z" />
<glyph unicode="&#x2000;" horiz-adv-x="912" />
<glyph unicode="&#x2001;" horiz-adv-x="1825" />
<glyph unicode="&#x2002;" horiz-adv-x="912" />
<glyph unicode="&#x2003;" horiz-adv-x="1825" />
<glyph unicode="&#x2004;" horiz-adv-x="608" />
<glyph unicode="&#x2005;" horiz-adv-x="456" />
<glyph unicode="&#x2006;" horiz-adv-x="304" />
<glyph unicode="&#x2007;" horiz-adv-x="304" />
<glyph unicode="&#x2008;" horiz-adv-x="228" />
<glyph unicode="&#x2009;" horiz-adv-x="365" />
<glyph unicode="&#x200a;" horiz-adv-x="101" />
<glyph unicode="&#x2010;" horiz-adv-x="1005" d="M213 518v127h580v-127h-580z" />
<glyph unicode="&#x2011;" horiz-adv-x="1005" d="M213 518v127h580v-127h-580z" />
<glyph unicode="&#x2012;" horiz-adv-x="1005" d="M213 518v127h580v-127h-580z" />
<glyph unicode="&#x2013;" horiz-adv-x="1462" d="M219 522v119h1024v-119h-1024z" />
<glyph unicode="&#x2014;" horiz-adv-x="1871" d="M219 522v119h1434v-119h-1434z" />
<glyph unicode="&#x2018;" horiz-adv-x="446" d="M111 1042l133 416h110l-96 -416h-147z" />
<glyph unicode="&#x2019;" horiz-adv-x="438" d="M117 1042l96 416h147l-131 -416h-112z" />
<glyph unicode="&#x201a;" horiz-adv-x="481" d="M84 -250l96 418h146l-131 -418h-111z" />
<glyph unicode="&#x201c;" horiz-adv-x="708" d="M111 1042l133 416h110l-96 -416h-147zM373 1042l131 416h112l-96 -416h-147z" />
<glyph unicode="&#x201d;" horiz-adv-x="698" d="M117 1042l96 416h147l-131 -416h-112zM379 1042l94 416h150l-134 -416h-110z" />
<glyph unicode="&#x201e;" horiz-adv-x="739" d="M84 -250l96 418h146l-131 -418h-111zM342 -250l96 418h146l-131 -418h-111z" />
<glyph unicode="&#x2022;" horiz-adv-x="825" d="M121 596q0 123 85 208t208 85q122 0 206.5 -85t84.5 -208t-84.5 -208t-206.5 -85q-123 0 -208 85t-85 208z" />
<glyph unicode="&#x2026;" horiz-adv-x="1458" d="M166 0v170h164v-170h-164zM647 0v170h164v-170h-164zM1128 0v170h164v-170h-164z" />
<glyph unicode="&#x202f;" horiz-adv-x="365" />
<glyph unicode="&#x2039;" horiz-adv-x="710" d="M100 578l336 421h152l-336 -421l336 -420h-152z" />
<glyph unicode="&#x203a;" horiz-adv-x="710" d="M123 158l336 420l-336 421h151l336 -421l-336 -420h-151z" />
<glyph unicode="&#x205f;" horiz-adv-x="456" />
<glyph unicode="&#x20ac;" horiz-adv-x="1220" d="M96 526v103h111q-10 83 2 207h-113v102h131q63 233 248 379.5t436 146.5q68 0 138 -12l55 -12l-33 -129l-49 12q-58 10 -113 10q-195 0 -335 -107.5t-195 -287.5h625l-21 -102h-627q-11 -96 -2 -207h592l-20 -103h-549q51 -188 194 -304t340 -116q69 0 131 15q6 2 54 14 l30 -129q-1 0 -61 -16q-73 -15 -154 -15q-259 0 -446 153t-242 398h-127z" />
<glyph unicode="&#x2122;" horiz-adv-x="1933" d="M61 1333v107h756v-107h-319v-790h-117v790h-320zM893 543l72 897h104l238 -514q5 -10 11.5 -31.5t8.5 -26.5l8 -26h4q1 3 4.5 12t4.5 14q7 32 20 58l236 514h104l72 -897h-115l-49 608v41q0 12 2 18h-4l-230 -499h-96l-229 499h-4q2 -6 2 -18v-41l-49 -608h-115z" />
<glyph unicode="&#xe000;" horiz-adv-x="1034" d="M0 0v1034h1034v-1034h-1034z" />
</font>
</defs></svg> 